0 133 8.576870e+02 5.951500e+02 2.344000e+02 1.472600e+01 1.073700e+01 2.615000e+00 5.568900e-02 7.081000e-05 7.152600e-06 0.000000e+00 0.000000e+00
1 265 8.564100e+02 5.974000e+02 2.324900e+02 1.336200e+01 1.059800e+01 2.476900e+00 7.568500e-02 1.659400e-04 1.359000e-04 0.000000e+00 0.000000e+00
2 269 8.559230e+02 5.977900e+02 2.311900e+02 1.382900e+01 1.058000e+01 2.447600e+00 7.708400e-02 1.659400e-04 1.330400e-04 0.000000e+00 0.000000e+00
3 129 8.555130e+02 5.935700e+02 2.319900e+02 1.666100e+01 1.077000e+01 2.468000e+00 5.821600e-02 3.469000e-04 1.192100e-05 0.000000e+00 0.000000e+00
4 271 8.554310e+02 5.970200e+02 2.318300e+02 1.245100e+01 1.062000e+01 3.419000e+00 9.903700e-02 1.769100e-04 1.270800e-04 0.000000e+00 0.000000e+00
5 131 8.552090e+02 5.970300e+02 2.295700e+02 1.515200e+01 1.076400e+01 2.634000e+00 5.743100e-02 3.600100e-04 2.861000e-06 0.000000e+00 0.000000e+00
6 201 8.551740e+02 5.969700e+02 2.319400e+02 1.351500e+01 1.012300e+01 2.541900e+00 8.105300e-02 6.201300e-04 6.914100e-06 0.000000e+00 0.000000e+00
7 331 8.551700e+02 5.987900e+02 2.310100e+02 1.454700e+01 8.275000e+00 2.485500e+00 5.394600e-02 3.478500e-04 1.370900e-04 0.000000e+00 0.000000e+00
8 329 8.549860e+02 5.982600e+02 2.314300e+02 1.432100e+01 8.421000e+00 2.499400e+00 5.390800e-02 3.140000e-04 3.600100e-05 0.000000e+00 0.000000e+00
9 267 8.549510e+02 5.969200e+02 2.311100e+02 1.383300e+01 1.058800e+01 2.411700e+00 8.067600e-02 1.690400e-04 1.080000e-04 0.000000e+00 0.000000e+00
10 197 8.546700e+02 5.940900e+02 2.337400e+02 1.408600e+01 1.014000e+01 2.528800e+00 8.887500e-02 8.702300e-05 4.053100e-06 0.000000e+00 0.000000e+00
11 135 8.546220e+02 5.974800e+02 2.302200e+02 1.351300e+01 1.076000e+01 2.598600e+00 5.524200e-02 3.500000e-04 4.053100e-06 0.000000e+00 0.000000e+00
12 323 8.546010e+02 5.978400e+02 2.321400e+02 1.358300e+01 8.449600e+00 2.532900e+00 5.574400e-02 6.389600e-05 1.421000e-04 0.000000e+00 0.000000e+00
13 333 8.544850e+02 5.987500e+02 2.306300e+02 1.427300e+01 8.273900e+00 2.494700e+00 5.369100e-02 3.099400e-04 1.289800e-04 0.000000e+00 0.000000e+00
14 325 8.543980e+02 5.950100e+02 2.332000e+02 1.533200e+01 8.278800e+00 2.529300e+00 5.512200e-02 7.557900e-04 2.098100e-05 0.000000e+00 0.000000e+00
15 193 8.543490e+02 5.937900e+02 2.319600e+02 1.573700e+01 1.018900e+01 2.577800e+00 8.908400e-02 4.141300e-04 5.006800e-06 0.000000e+00 0.000000e+00
16 199 8.543040e+02 5.975200e+02 2.310700e+02 1.292000e+01 1.015000e+01 2.559400e+00 8.740800e-02 8.988400e-05 6.198900e-06 0.000000e+00 0.000000e+00
17 261 8.542890e+02 5.921200e+02 2.344700e+02 1.461900e+01 1.052100e+01 2.476700e+00 8.064000e-02 3.559600e-04 1.981300e-04 0.000000e+00 0.000000e+00
18 259 8.542190e+02 5.945400e+02 2.338200e+02 1.267700e+01 1.056700e+01 2.540700e+00 7.412800e-02 3.578700e-04 4.053100e-06 0.000000e+00 0.000000e+00
19 327 8.541690e+02 5.990700e+02 2.301200e+02 1.399500e+01 8.446300e+00 2.489000e+00 5.187700e-02 8.199200e-04 3.099400e-06 0.000000e+00 0.000000e+00
20 257 8.541470e+02 5.927600e+02 2.345800e+02 1.362900e+01 1.060300e+01 2.491600e+00 8.234200e-02 3.540500e-04 9.799000e-05 0.000000e+00 0.000000e+00
21 335 8.541010e+02 5.987500e+02 2.304200e+02 1.406900e+01 8.321400e+00 2.480800e+00 5.310900e-02 8.480500e-04 3.814700e-06 0.000000e+00 0.000000e+00
22 203 8.540280e+02 5.972700e+02 2.292500e+02 1.478100e+01 1.016100e+01 2.492400e+00 7.946300e-02 6.210800e-04 2.861000e-06 0.000000e+00 0.000000e+00
23 337 8.539910e+02 5.976700e+02 2.309800e+02 1.441800e+01 8.354800e+00 2.513300e+00 5.556900e-02 2.160100e-04 1.361400e-04 0.000000e+00 0.000000e+00
24 137 8.538380e+02 5.952500e+02 2.310200e+02 1.414100e+01 1.075900e+01 2.609400e+00 5.720800e-02 4.689700e-04 9.059900e-06 0.000000e+00 0.000000e+00
25 321 8.536680e+02 5.950200e+02 2.335600e+02 1.400000e+01 8.548700e+00 2.487600e+00 5.805900e-02 7.059600e-04 4.100800e-05 0.000000e+00 0.000000e+00
26 209 8.536260e+02 5.960600e+02 2.310900e+02 1.364300e+01 1.015600e+01 2.586500e+00 8.553400e-02 7.290800e-04 4.053100e-06 0.000000e+00 0.000000e+00
27 139 8.535900e+02 5.960300e+02 2.285500e+02 1.562400e+01 1.073100e+01 2.589300e+00 6.444300e-02 4.241500e-04 3.814700e-06 0.000000e+00 0.000000e+00
28 195 8.535490e+02 5.962500e+02 2.300900e+02 1.435700e+01 1.017400e+01 2.597300e+00 8.110700e-02 4.108000e-04 3.099400e-06 0.000000e+00 0.000000e+00
29 141 8.535040e+02 5.960600e+02 2.285500e+02 1.550300e+01 1.073300e+01 2.593600e+00 6.169500e-02 4.429800e-04 2.002700e-05 0.000000e+00 0.000000e+00
30 192 8.534750e+02 5.992300e+02 2.286000e+02 1.614000e+01 9.282600e+00 1.383000e-01 7.666100e-02 2.889600e-04 1.096700e-05 0.000000e+00 0.000000e+00
31 5 8.533280e+02 5.995100e+02 2.302500e+02 1.070300e+01 9.921300e+00 2.886700e+00 6.190800e-02 8.459100e-04 5.478900e-04 0.000000e+00 0.000000e+00
32 143 8.532900e+02 5.954700e+02 2.294000e+02 1.496100e+01 1.080200e+01 2.598300e+00 5.614900e-02 4.458400e-04 8.106200e-06 0.000000e+00 0.000000e+00
33 339 8.531930e+02 5.963300e+02 2.315600e+02 1.445400e+01 8.309100e+00 2.486100e+00 5.457000e-02 3.070800e-04 5.006800e-06 0.000000e+00 0.000000e+00
34 263 8.531360e+02 5.958800e+02 2.311500e+02 1.298900e+01 1.059500e+01 2.446300e+00 8.202000e-02 3.600100e-04 1.320800e-04 0.000000e+00 0.000000e+00
35 147 8.528950e+02 5.937200e+02 2.309900e+02 1.481600e+01 1.072300e+01 2.592100e+00 5.482200e-02 4.761200e-04 3.814700e-06 0.000000e+00 0.000000e+00
36 205 8.526580e+02 5.965100e+02 2.288400e+02 1.452600e+01 1.013600e+01 2.550300e+00 8.602500e-02 6.291900e-04 4.053100e-06 0.000000e+00 0.000000e+00
37 313 8.525750e+02 5.891700e+02 2.354100e+02 1.378100e+01 1.080200e+01 3.328700e+00 7.819400e-02 3.161400e-04 2.551100e-04 0.000000e+00 0.000000e+00
38 185 8.525220e+02 5.896200e+02 2.350300e+02 1.417200e+01 1.104400e+01 2.598600e+00 6.286900e-02 8.831000e-04 5.006800e-06 0.000000e+00 0.000000e+00
39 315 8.524460e+02 5.907100e+02 2.344300e+02 1.308300e+01 1.080000e+01 3.336700e+00 8.559400e-02 3.202000e-04 7.295600e-05 0.000000e+00 0.000000e+00
40 136 8.524270e+02 6.008000e+02 2.257400e+02 1.227100e+01 1.095400e+01 2.597600e+00 6.528500e-02 2.069500e-04 7.152600e-06 0.000000e+00 0.000000e+00
41 189 8.524130e+02 5.910000e+02 2.346500e+02 1.307000e+01 1.102000e+01 2.607400e+00 6.661500e-02 8.752300e-04 3.814700e-06 0.000000e+00 0.000000e+00
42 249 8.522160e+02 5.902100e+02 2.346200e+02 1.434800e+01 1.042300e+01 2.534800e+00 8.195200e-02 9.980200e-04 4.053100e-06 0.000000e+00 0.000000e+00
43 145 8.522050e+02 5.946100e+02 2.300300e+02 1.405200e+01 1.082200e+01 2.633200e+00 5.627500e-02 5.211800e-04 5.960500e-06 0.000000e+00 0.000000e+00
44 253 8.521530e+02 5.913800e+02 2.344500e+02 1.330800e+01 1.039900e+01 2.533900e+00 7.745300e-02 9.319800e-04 4.053100e-06 0.000000e+00 0.000000e+00
45 207 8.521520e+02 5.972100e+02 2.280800e+02 1.408000e+01 1.015000e+01 2.551700e+00 7.868500e-02 6.239400e-04 5.006800e-06 0.000000e+00 0.000000e+00
46 251 8.519680e+02 5.906200e+02 2.343300e+02 1.402600e+01 1.038200e+01 2.524900e+00 8.287500e-02 9.310200e-04 6.914100e-06 0.000000e+00 0.000000e+00
47 381 8.519110e+02 5.927100e+02 2.338900e+02 1.328600e+01 8.618000e+00 3.337300e+00 6.391700e-02 8.621200e-04 4.053100e-06 0.000000e+00 0.000000e+00
48 187 8.518310e+02 5.901600e+02 2.341000e+02 1.385300e+01 1.102400e+01 2.625900e+00 6.186300e-02 9.062300e-04 5.960500e-06 0.000000e+00 0.000000e+00
49 377 8.517890e+02 5.911400e+02 2.346100e+02 1.390000e+01 8.642600e+00 3.432300e+00 6.521500e-02 9.799000e-05 1.330400e-04 0.000000e+00 0.000000e+00
50 3 8.515350e+02 6.008300e+02 2.260300e+02 1.171200e+01 1.006300e+01 2.832800e+00 6.312500e-02 8.378000e-04 6.799700e-04 0.000000e+00 0.000000e+00
51 275 8.515020e+02 5.942900e+02 2.303500e+02 1.377100e+01 1.053000e+01 2.480100e+00 8.379800e-02 8.130100e-04 3.099400e-06 0.000000e+00 0.000000e+00
52 317 8.514860e+02 5.896800e+02 2.345100e+02 1.395500e+01 1.080800e+01 2.458400e+00 7.639500e-02 3.349800e-04 8.606900e-05 0.000000e+00 0.000000e+00
53 341 8.513470e+02 5.967400e+02 2.300800e+02 1.367300e+01 8.308000e+00 2.488200e+00 5.348400e-02 8.449600e-04 4.053100e-06 0.000000e+00 0.000000e+00
54 241 8.512000e+02 5.900600e+02 2.329700e+02 1.517700e+01 1.043500e+01 2.467400e+00 8.742100e-02 8.459100e-04 1.311300e-05 0.000000e+00 0.000000e+00
55 142 8.511940e+02 6.003800e+02 2.235600e+02 1.362700e+01 1.094700e+01 2.615500e+00 6.312700e-02 5.197500e-05 4.053100e-06 0.000000e+00 0.000000e+00
56 320 8.509200e+02 6.016200e+02 2.269300e+02 1.430100e+01 7.868400e+00 1.331400e-01 6.124200e-02 3.910100e-05 8.916900e-05 0.000000e+00 0.000000e+00
57 379 8.509050e+02 5.924400e+02 2.330600e+02 1.332700e+01 8.675600e+00 3.342000e+00 6.383800e-02 3.161400e-04 1.301800e-04 0.000000e+00 0.000000e+00
58 211 8.507770e+02 5.951800e+02 2.289100e+02 1.393400e+01 1.013200e+01 2.540700e+00 8.530800e-02 8.201600e-04 4.053100e-06 0.000000e+00 0.000000e+00
59 69 8.506560e+02 5.978300e+02 2.286400e+02 1.097900e+01 1.004500e+01 3.029400e+00 1.222500e-01 1.162100e-03 1.778600e-04 0.000000e+00 0.000000e+00
60 371 8.506330e+02 5.939200e+02 2.315000e+02 1.386500e+01 8.743000e+00 2.543100e+00 5.733500e-02 3.120900e-04 1.950300e-04 0.000000e+00 0.000000e+00
61 138 8.506170e+02 6.014200e+02 2.226100e+02 1.299900e+01 1.092500e+01 2.600900e+00 6.306800e-02 4.386900e-05 4.053100e-06 0.000000e+00 0.000000e+00
62 385 8.505990e+02 5.980600e+02 2.287000e+02 1.037700e+01 1.039300e+01 2.939700e+00 1.273400e-01 9.450900e-04 7.450600e-04 0.000000e+00 0.000000e+00
63 134 8.505340e+02 5.998000e+02 2.253700e+02 1.179300e+01 1.091900e+01 2.576300e+00 6.876900e-02 2.028900e-04 5.960500e-06 0.000000e+00 0.000000e+00
64 301 8.505230e+02 5.889500e+02 2.320700e+02 1.621400e+01 1.078500e+01 2.436600e+00 7.347800e-02 8.299400e-04 4.053100e-06 0.000000e+00 0.000000e+00
65 245 8.505230e+02 5.909100e+02 2.321800e+02 1.443600e+01 1.035800e+01 2.550200e+00 8.387600e-02 8.580700e-04 4.053100e-06 0.000000e+00 0.000000e+00
66 65 8.504430e+02 5.984300e+02 2.261800e+02 1.272400e+01 1.010000e+01 2.884900e+00 1.300100e-01 8.490100e-04 3.018400e-04 0.000000e+00 0.000000e+00
67 132 8.504370e+02 5.986600e+02 2.266500e+02 1.160000e+01 1.088300e+01 2.582500e+00 6.500900e-02 3.600100e-04 1.287500e-05 0.000000e+00 0.000000e+00
68 373 8.504330e+02 5.917800e+02 2.323700e+02 1.503400e+01 8.688100e+00 2.501700e+00 5.423000e-02 3.140000e-04 2.172000e-04 0.000000e+00 0.000000e+00
69 239 8.504270e+02 5.907900e+02 2.311000e+02 1.545100e+01 1.046500e+01 2.545900e+00 7.659000e-02 6.511200e-04 2.861000e-06 0.000000e+00 0.000000e+00
70 243 8.504250e+02 5.931200e+02 2.307400e+02 1.351100e+01 1.041500e+01 2.554000e+00 8.368900e-02 8.449600e-04 3.814700e-06 0.000000e+00 0.000000e+00
71 1 8.504190e+02 5.976200e+02 2.271200e+02 1.283500e+01 1.006100e+01 2.727500e+00 6.048300e-02 8.089500e-04 5.650500e-04 0.000000e+00 0.000000e+00
72 7 8.502870e+02 6.019300e+02 2.256900e+02 9.941200e+00 9.833600e+00 2.825900e+00 5.959500e-02 8.378000e-04 6.179800e-04 0.000000e+00 0.000000e+00
73 247 8.502560e+02 5.906400e+02 2.321400e+02 1.452800e+01 1.037000e+01 2.498400e+00 7.829700e-02 8.511500e-04 4.053100e-06 0.000000e+00 0.000000e+00
74 237 8.502430e+02 5.896400e+02 2.316600e+02 1.595700e+01 1.038000e+01 2.525400e+00 8.229800e-02 6.480200e-04 2.861000e-06 0.000000e+00 0.000000e+00
75 369 8.502410e+02 5.899500e+02 2.331000e+02 1.481000e+01 9.010300e+00 3.303100e+00 6.144200e-02 3.190000e-04 4.911400e-05 0.000000e+00 0.000000e+00
76 365 8.502170e+02 5.907500e+02 2.314100e+02 1.659800e+01 8.968600e+00 2.432100e+00 5.736400e-02 2.231600e-04 9.989700e-05 0.000000e+00 0.000000e+00
77 363 8.502000e+02 5.947200e+02 2.299500e+02 1.459300e+01 8.416200e+00 2.466700e+00 5.483100e-02 2.231600e-04 1.220700e-04 0.000000e+00 0.000000e+00
78 177 8.501310e+02 5.891900e+02 2.322600e+02 1.499900e+01 1.106100e+01 2.548500e+00 6.274500e-02 8.318400e-04 5.006800e-06 0.000000e+00 0.000000e+00
79 73 8.501130e+02 6.002000e+02 2.263900e+02 1.029900e+01 1.009400e+01 3.007700e+00 1.246100e-01 1.116000e-03 7.298000e-04 0.000000e+00 0.000000e+00
80 311 8.500420e+02 5.892400e+02 2.330400e+02 1.362900e+01 1.077900e+01 3.276800e+00 8.356300e-02 2.200600e-04 9.107600e-05 0.000000e+00 0.000000e+00
81 273 8.499860e+02 5.948900e+02 2.279400e+02 1.393900e+01 1.063100e+01 2.508100e+00 7.665100e-02 7.581700e-05 5.960500e-06 0.000000e+00 0.000000e+00
82 181 8.499410e+02 5.898900e+02 2.316700e+02 1.471800e+01 1.098900e+01 2.612000e+00 6.265200e-02 6.699600e-04 7.152600e-06 0.000000e+00 0.000000e+00
83 183 8.498610e+02 5.897700e+02 2.318200e+02 1.464700e+01 1.099200e+01 2.571600e+00 6.368300e-02 8.249300e-04 7.152600e-06 0.000000e+00 0.000000e+00
84 75 8.498500e+02 6.008200e+02 2.239700e+02 1.192000e+01 1.008100e+01 2.946200e+00 1.140600e-01 1.093100e-03 6.589900e-04 0.000000e+00 0.000000e+00
85 128 8.498240e+02 5.967100e+02 2.253000e+02 1.660900e+01 1.095300e+01 1.754100e-01 7.741900e-02 3.590600e-04 5.006800e-06 0.000000e+00 0.000000e+00
86 367 8.497990e+02 5.912400e+02 2.305500e+02 1.644000e+01 8.996600e+00 2.513600e+00 5.709100e-02 8.709400e-04 2.861000e-06 0.000000e+00 0.000000e+00
87 9 8.496860e+02 6.001700e+02 2.265200e+02 1.011800e+01 9.924600e+00 2.897300e+00 6.202900e-02 9.682200e-04 2.179100e-04 0.000000e+00 0.000000e+00
88 179 8.496690e+02 5.923100e+02 2.301100e+02 1.352300e+01 1.102100e+01 2.635500e+00 6.651100e-02 7.188300e-04 4.053100e-06 0.000000e+00 0.000000e+00
89 307 8.495930e+02 5.917000e+02 2.311700e+02 1.256500e+01 1.078900e+01 3.287300e+00 7.817400e-02 2.849100e-04 9.059900e-06 0.000000e+00 0.000000e+00
90 309 8.495600e+02 5.896800e+02 2.320800e+02 1.369900e+01 1.074600e+01 3.277000e+00 8.377500e-02 3.149500e-04 2.694100e-05 0.000000e+00 0.000000e+00
91 303 8.494970e+02 5.888200e+02 2.315000e+02 1.487700e+01 1.086700e+01 3.348400e+00 8.587200e-02 2.031300e-04 1.308900e-04 0.000000e+00 0.000000e+00
92 19 8.494790e+02 5.989500e+02 2.266900e+02 1.088300e+01 1.008700e+01 2.801500e+00 6.086500e-02 8.552100e-04 6.911800e-04 0.000000e+00 0.000000e+00
93 144 8.493150e+02 5.987900e+02 2.237500e+02 1.298400e+01 1.110500e+01 2.616600e+00 6.344600e-02 2.310300e-04 4.053100e-06 0.000000e+00 0.000000e+00
94 375 8.493060e+02 5.910200e+02 2.323100e+02 1.376300e+01 8.824400e+00 3.328100e+00 6.145200e-02 8.580700e-04 3.814700e-06 0.000000e+00 0.000000e+00
95 175 8.492580e+02 5.902800e+02 2.298100e+02 1.544500e+01 1.105400e+01 2.609600e+00 6.320300e-02 7.422000e-04 6.914100e-06 0.000000e+00 0.000000e+00
96 200 8.491770e+02 6.003800e+02 2.254600e+02 1.105800e+01 9.614500e+00 2.571500e+00 9.338500e-02 3.738400e-04 4.053100e-06 0.000000e+00 0.000000e+00
97 130 8.491570e+02 6.018900e+02 2.213900e+02 1.228300e+01 1.095600e+01 2.583400e+00 6.147400e-02 2.059900e-04 4.053100e-06 0.000000e+00 0.000000e+00
98 173 8.490440e+02 5.890200e+02 2.304100e+02 1.601800e+01 1.095400e+01 2.569800e+00 6.487300e-02 5.760200e-04 4.053100e-06 0.000000e+00 0.000000e+00
99 79 8.489530e+02 6.004300e+02 2.237500e+02 1.156000e+01 1.009900e+01 2.990100e+00 1.234400e-01 1.092900e-03 5.669600e-04 0.000000e+00 0.000000e+00
100 64 8.489290e+02 6.010800e+02 2.234900e+02 1.436000e+01 9.713800e+00 1.771800e-01 1.045700e-01 1.066900e-03 4.680200e-04 0.000000e+00 0.000000e+00
101 77 8.488220e+02 6.001600e+02 2.236800e+02 1.187000e+01 1.005000e+01 2.943500e+00 1.089200e-01 1.123200e-03 7.748600e-04 0.000000e+00 0.000000e+00
102 204 8.487840e+02 6.003900e+02 2.239000e+02 1.227400e+01 9.606400e+00 2.521500e+00 9.506400e-02 3.690700e-04 7.152600e-06 0.000000e+00 0.000000e+00
103 23 8.487750e+02 6.003500e+02 2.248500e+02 1.072900e+01 9.875000e+00 2.901100e+00 6.162000e-02 1.035900e-03 6.649500e-04 0.000000e+00 0.000000e+00
104 391 8.487670e+02 6.009800e+02 2.241300e+02 1.024200e+01 1.036200e+01 2.923400e+00 1.289700e-01 9.441400e-04 6.179800e-04 0.000000e+00 0.000000e+00
105 67 8.487130e+02 5.995200e+02 2.243600e+02 1.158000e+01 1.011000e+01 3.019200e+00 1.246900e-01 8.499600e-04 2.770400e-04 0.000000e+00 0.000000e+00
106 71 8.485180e+02 6.004700e+02 2.248600e+02 1.000100e+01 1.008600e+01 2.982000e+00 1.186800e-01 1.061000e-03 4.642000e-04 0.000000e+00 0.000000e+00
107 305 8.484710e+02 5.880700e+02 2.318600e+02 1.439000e+01 1.081700e+01 3.247500e+00 8.803400e-02 3.361700e-04 8.082400e-05 0.000000e+00 0.000000e+00
108 198 8.482770e+02 6.001900e+02 2.248300e+02 1.110100e+01 9.534000e+00 2.536600e+00 9.458900e-02 6.389600e-05 5.960500e-06 0.000000e+00 0.000000e+00
109 148 8.482150e+02 5.999000e+02 2.230400e+02 1.171900e+01 1.090200e+01 2.587200e+00 6.615600e-02 2.849100e-04 1.001400e-05 0.000000e+00 0.000000e+00
110 206 8.481600e+02 6.001600e+02 2.228600e+02 1.283200e+01 9.648800e+00 2.574200e+00 9.029700e-02 7.391000e-05 4.053100e-06 0.000000e+00 0.000000e+00
111 387 8.480800e+02 5.989600e+02 2.259800e+02 9.685700e+00 1.035900e+01 2.962200e+00 1.328200e-01 1.153000e-03 7.069100e-04 0.000000e+00 0.000000e+00
112 146 8.480040e+02 5.991300e+02 2.233100e+02 1.200500e+01 1.090500e+01 2.587600e+00 6.432900e-02 2.861000e-04 2.098100e-05 0.000000e+00 0.000000e+00
113 21 8.479910e+02 5.991300e+02 2.256300e+02 1.032600e+01 9.978000e+00 2.861900e+00 6.118500e-02 8.552100e-04 7.059600e-04 0.000000e+00 0.000000e+00
114 15 8.479750e+02 6.010600e+02 2.223700e+02 1.145400e+01 1.006300e+01 2.960600e+00 6.454000e-02 9.779900e-04 7.100100e-04 0.000000e+00 0.000000e+00
115 17 8.479630e+02 5.991500e+02 2.252500e+02 1.040900e+01 1.020600e+01 2.885600e+00 6.314500e-02 1.037100e-03 1.578300e-04 0.000000e+00 0.000000e+00
116 202 8.478980e+02 6.005300e+02 2.226700e+02 1.242900e+01 9.589600e+00 2.591200e+00 9.027500e-02 3.769400e-04 1.311300e-05 0.000000e+00 0.000000e+00
117 393 8.478610e+02 5.995300e+02 2.245000e+02 1.042000e+01 1.032500e+01 2.958100e+00 1.292900e-01 1.108900e-03 4.439400e-04 0.000000e+00 0.000000e+00
118 210 8.478500e+02 6.005100e+02 2.239200e+02 1.113000e+01 9.615500e+00 2.581700e+00 9.209100e-02 4.007800e-04 4.053100e-06 0.000000e+00 0.000000e+00
119 270 8.477600e+02 5.998800e+02 2.220400e+02 1.241100e+01 1.077100e+01 2.571100e+00 8.721800e-02 4.601500e-05 5.960500e-06 0.000000e+00 0.000000e+00
120 266 8.476270e+02 6.004700e+02 2.220800e+02 1.166200e+01 1.076400e+01 2.563600e+00 8.641500e-02 8.909700e-04 3.814700e-06 0.000000e+00 0.000000e+00
121 194 8.476070e+02 6.022700e+02 2.215700e+02 1.138000e+01 9.685700e+00 2.613900e+00 8.737900e-02 3.390300e-04 1.001400e-05 0.000000e+00 0.000000e+00
122 25 8.475870e+02 6.000500e+02 2.234100e+02 1.125500e+01 9.927000e+00 2.884100e+00 6.174000e-02 9.801400e-04 6.868800e-04 0.000000e+00 0.000000e+00
123 83 8.475580e+02 5.976100e+02 2.259300e+02 1.081900e+01 1.007700e+01 2.990000e+00 1.325600e-01 8.430500e-04 7.441000e-04 0.000000e+00 0.000000e+00
124 361 8.475350e+02 5.944100e+02 2.267300e+02 1.525800e+01 8.563700e+00 2.519900e+00 5.278900e-02 8.430500e-04 2.861000e-06 0.000000e+00 0.000000e+00
125 389 8.474190e+02 5.967100e+02 2.258100e+02 1.153700e+01 1.029800e+01 2.928700e+00 1.263600e-01 9.501000e-04 4.160400e-04 0.000000e+00 0.000000e+00
126 140 8.473890e+02 5.997300e+02 2.211200e+02 1.198100e+01 1.090400e+01 3.577900e+00 7.988900e-02 2.059900e-04 4.053100e-06 0.000000e+00 0.000000e+00
127 171 8.473490e+02 5.926200e+02 2.265600e+02 1.452300e+01 1.101700e+01 2.564500e+00 6.553300e-02 2.629800e-04 4.053100e-06 0.000000e+00 0.000000e+00
128 149 8.472380e+02 5.949500e+02 2.248100e+02 1.411600e+01 1.069700e+01 2.607200e+00 5.683300e-02 4.801800e-04 5.006800e-06 0.000000e+00 0.000000e+00
129 403 8.472220e+02 5.982500e+02 2.249200e+02 1.067700e+01 1.028200e+01 2.971700e+00 1.236900e-01 9.450900e-04 4.189000e-04 0.000000e+00 0.000000e+00
130 264 8.470970e+02 6.003300e+02 2.224200e+02 1.091700e+01 1.078300e+01 2.552000e+00 8.611800e-02 8.919200e-04 2.861000e-06 0.000000e+00 0.000000e+00
131 57 8.470260e+02 5.932000e+02 2.305900e+02 1.001400e+01 1.026400e+01 2.899400e+00 5.814500e-02 1.112000e-03 7.638900e-04 0.000000e+00 0.000000e+00
132 208 8.470230e+02 5.999500e+02 2.222800e+02 1.249000e+01 9.650500e+00 2.561900e+00 8.576200e-02 4.019700e-04 4.053100e-06 0.000000e+00 0.000000e+00
133 268 8.469050e+02 5.995800e+02 2.229200e+02 1.110800e+01 1.064700e+01 2.565900e+00 8.146600e-02 4.696800e-05 4.196200e-05 0.000000e+00 0.000000e+00
134 12 8.468480e+02 6.039200e+02 2.197500e+02 1.022900e+01 1.012100e+01 2.766900e+00 6.697500e-02 6.294300e-05 7.031000e-04 0.000000e+00 0.000000e+00
135 121 8.468350e+02 5.927100e+02 2.303400e+02 1.031100e+01 1.035000e+01 3.016400e+00 1.068900e-01 1.102900e-03 8.401900e-04 0.000000e+00 0.000000e+00
136 49 8.468280e+02 5.943300e+02 2.288600e+02 1.058900e+01 1.014800e+01 2.840100e+00 6.112100e-02 1.111000e-03 6.029600e-04 0.000000e+00 0.000000e+00
137 405 8.468040e+02 5.988900e+02 2.248100e+02 9.751900e+00 1.027300e+01 2.959100e+00 1.197100e-01 9.419900e-04 7.460100e-04 0.000000e+00 0.000000e+00
138 81 8.467200e+02 5.986200e+02 2.244500e+02 1.039300e+01 1.011800e+01 3.012700e+00 1.274900e-01 1.125100e-03 1.680900e-04 0.000000e+00 0.000000e+00
139 256 8.466600e+02 5.973300e+02 2.251200e+02 1.312900e+01 1.079500e+01 1.870800e-01 1.015500e-01 3.531000e-04 8.201600e-05 0.000000e+00 0.000000e+00
140 409 8.465250e+02 6.008400e+02 2.215300e+02 1.074900e+01 1.036600e+01 2.918900e+00 1.201100e-01 9.889600e-04 5.261900e-04 0.000000e+00 0.000000e+00
141 343 8.465230e+02 5.970100e+02 2.239400e+02 1.463300e+01 8.418200e+00 2.467400e+00 5.458100e-02 2.110000e-04 2.551100e-04 0.000000e+00 0.000000e+00
142 260 8.465220e+02 5.986800e+02 2.237000e+02 1.080200e+01 1.071500e+01 2.535200e+00 8.830300e-02 5.579000e-04 2.861000e-06 0.000000e+00 0.000000e+00
143 11 8.465010e+02 6.005100e+02 2.218600e+02 1.133600e+01 9.916100e+00 2.813300e+00 6.335800e-02 1.122000e-03 5.409700e-04 0.000000e+00 0.000000e+00
144 277 8.464330e+02 5.949800e+02 2.250200e+02 1.328600e+01 1.055500e+01 2.519100e+00 7.535800e-02 7.979900e-04 3.099400e-06 0.000000e+00 0.000000e+00
145 59 8.462970e+02 5.933400e+02 2.301300e+02 9.608800e+00 1.026800e+01 2.890000e+00 5.939400e-02 1.103200e-03 5.531300e-04 0.000000e+00 0.000000e+00
146 384 8.462800e+02 6.010600e+02 2.219500e+02 1.213500e+01 1.078100e+01 2.164500e-01 1.376000e-01 9.660700e-04 6.890300e-04 0.000000e+00 0.000000e+00
147 397 8.462700e+02 6.001500e+02 2.225300e+02 1.024300e+01 1.028000e+01 2.931900e+00 1.340300e-01 1.086000e-03 5.579000e-04 0.000000e+00 0.000000e+00
148 123 8.462070e+02 5.938200e+02 2.289500e+02 1.004000e+01 1.034600e+01 2.947300e+00 1.048000e-01 1.106000e-03 3.380800e-04 0.000000e+00 0.000000e+00
149 39 8.461850e+02 5.926100e+02 2.283200e+02 1.217300e+01 1.014200e+01 2.875100e+00 5.838100e-02 1.122000e-03 7.519700e-04 0.000000e+00 0.000000e+00
150 55 8.460970e+02 5.947900e+02 2.284200e+02 9.996600e+00 9.978800e+00 2.849700e+00 6.022400e-02 1.124900e-03 7.801100e-04 0.000000e+00 0.000000e+00
151 392 8.460600e+02 6.037200e+02 2.189200e+02 8.674200e+00 1.075300e+01 3.840500e+00 1.524000e-01 9.992100e-04 5.760200e-04 0.000000e+00 0.000000e+00
152 399 8.460480e+02 5.998100e+02 2.228100e+02 1.001600e+01 1.034600e+01 2.957400e+00 1.122300e-01 9.419900e-04 7.569800e-04 0.000000e+00 0.000000e+00
153 113 8.459680e+02 5.927200e+02 2.284700e+02 1.135300e+01 1.035800e+01 2.960400e+00 1.043700e-01 1.090000e-03 6.589900e-04 0.000000e+00 0.000000e+00
154 53 8.459190e+02 5.949600e+02 2.278800e+02 1.011800e+01 1.005700e+01 2.844800e+00 6.017300e-02 1.082200e-03 5.431200e-04 0.000000e+00 0.000000e+00
155 324 8.458060e+02 6.018800e+02 2.217900e+02 1.160200e+01 7.849500e+00 2.627400e+00 6.169900e-02 1.101500e-04 6.008100e-05 0.000000e+00 0.000000e+00
156 395 8.457410e+02 5.992100e+02 2.226000e+02 1.058000e+01 1.031400e+01 2.901000e+00 1.372700e-01 9.489100e-04 6.809200e-04 0.000000e+00 0.000000e+00
157 6 8.457000e+02 6.023300e+02 2.217600e+02 8.637000e+00 1.014900e+01 2.760000e+00 6.452800e-02 9.639300e-04 7.050000e-04 0.000000e+00 0.000000e+00
158 326 8.456750e+02 6.026300e+02 2.204000e+02 1.209100e+01 7.856000e+00 2.635300e+00 6.219800e-02 3.368900e-04 1.320800e-04 0.000000e+00 0.000000e+00
159 299 8.456340e+02 5.918900e+02 2.261500e+02 1.427800e+01 1.084100e+01 2.400900e+00 7.365300e-02 2.059900e-04 9.393700e-05 0.000000e+00 0.000000e+00
160 85 8.455800e+02 5.976300e+02 2.242400e+02 1.055900e+01 1.002300e+01 3.011600e+00 1.178900e-01 8.430500e-04 3.070800e-04 0.000000e+00 0.000000e+00
161 125 8.455730e+02 5.941300e+02 2.283900e+02 9.637600e+00 1.035600e+01 2.952400e+00 1.100200e-01 1.080000e-03 8.928800e-04 0.000000e+00 0.000000e+00
162 87 8.455250e+02 5.994700e+02 2.218500e+02 1.099700e+01 1.004300e+01 3.036200e+00 1.275400e-01 8.399500e-04 4.990100e-04 0.000000e+00 0.000000e+00
163 51 8.454300e+02 5.968300e+02 2.263500e+02 9.144100e+00 1.011100e+01 2.930400e+00 5.970300e-02 1.159200e-03 5.450200e-04 0.000000e+00 0.000000e+00
164 45 8.454080e+02 5.931200e+02 2.283300e+02 1.097600e+01 1.011000e+01 2.819400e+00 5.593000e-02 1.060000e-03 4.670600e-04 0.000000e+00 0.000000e+00
165 274 8.453550e+02 5.989700e+02 2.218200e+02 1.112000e+01 1.074800e+01 2.607900e+00 8.298300e-02 2.329300e-04 1.089600e-04 0.000000e+00 0.000000e+00
166 61 8.453380e+02 5.946000e+02 2.285300e+02 9.088700e+00 1.023500e+01 2.825800e+00 5.868200e-02 1.072200e-03 2.589200e-04 0.000000e+00 0.000000e+00
167 441 8.453340e+02 5.927000e+02 2.278100e+02 1.118700e+01 1.057300e+01 2.955800e+00 1.070100e-01 9.970700e-04 5.531300e-04 0.000000e+00 0.000000e+00
168 262 8.452590e+02 5.991500e+02 2.216800e+02 1.105800e+01 1.074000e+01 2.543600e+00 8.046200e-02 4.010200e-04 5.006800e-06 0.000000e+00 0.000000e+00
169 330 8.452190e+02 6.016900e+02 2.204800e+02 1.252200e+01 7.836400e+00 2.635700e+00 6.085000e-02 3.750300e-04 1.490100e-04 0.000000e+00 0.000000e+00
170 4 8.451260e+02 6.013400e+02 2.221300e+02 8.656000e+00 1.012100e+01 2.807400e+00 7.207800e-02 8.528200e-04 7.798700e-04 0.000000e+00 0.000000e+00
171 394 8.450840e+02 6.037600e+02 2.174100e+02 1.018500e+01 1.075500e+01 2.848100e+00 1.251100e-01 9.892000e-04 3.721700e-04 0.000000e+00 0.000000e+00
172 411 8.450580e+02 6.003800e+02 2.200300e+02 1.053200e+01 1.030400e+01 3.668100e+00 1.434700e-01 1.103900e-03 4.918600e-04 0.000000e+00 0.000000e+00
173 398 8.450500e+02 6.028600e+02 2.181300e+02 1.030300e+01 1.079100e+01 2.838700e+00 1.265100e-01 1.148900e-03 4.448900e-04 0.000000e+00 0.000000e+00
174 407 8.449560e+02 5.975700e+02 2.235400e+02 1.046700e+01 1.028800e+01 2.972800e+00 1.196900e-01 9.739400e-04 6.179800e-04 0.000000e+00 0.000000e+00
175 107 8.449250e+02 5.956400e+02 2.254500e+02 1.041400e+01 1.036200e+01 2.958500e+00 9.332100e-02 1.111000e-03 8.289800e-04 0.000000e+00 0.000000e+00
176 2 8.449160e+02 6.041700e+02 2.181300e+02 9.371800e+00 1.032500e+01 2.847100e+00 6.800000e-02 8.659400e-04 8.389900e-04 0.000000e+00 0.000000e+00
177 332 8.448320e+02 6.024400e+02 2.201300e+02 1.183500e+01 7.741100e+00 2.621300e+00 6.334400e-02 5.316700e-05 5.006800e-06 0.000000e+00 0.000000e+00
178 443 8.448070e+02 5.935900e+02 2.267700e+02 1.091000e+01 1.055000e+01 2.880000e+00 9.990500e-02 9.861000e-04 4.041200e-04 0.000000e+00 0.000000e+00
179 396 8.447710e+02 6.034600e+02 2.182500e+02 8.593100e+00 1.072200e+01 3.607100e+00 1.433200e-01 1.161100e-03 4.191400e-04 0.000000e+00 0.000000e+00
180 272 8.447420e+02 5.983300e+02 2.214600e+02 1.182300e+01 1.046300e+01 2.578500e+00 8.746800e-02 2.391300e-04 1.227900e-04 0.000000e+00 0.000000e+00
181 43 8.446750e+02 5.954100e+02 2.262200e+02 1.001600e+01 1.012700e+01 2.842700e+00 5.744300e-02 1.014000e-03 4.670600e-04 0.000000e+00 0.000000e+00
182 235 8.446510e+02 5.934500e+02 2.240300e+02 1.414800e+01 1.040500e+01 2.528700e+00 8.321300e-02 6.420600e-04 1.192100e-05 0.000000e+00 0.000000e+00
183 338 8.444990e+02 6.019300e+02 2.201100e+02 1.203200e+01 7.711800e+00 2.655200e+00 6.363000e-02 7.889300e-04 2.861000e-06 0.000000e+00 0.000000e+00
184 115 8.444430e+02 5.952900e+02 2.257900e+02 9.888900e+00 1.033000e+01 3.033400e+00 1.084200e-01 1.142000e-03 5.469300e-04 0.000000e+00 0.000000e+00
185 410 8.444050e+02 6.034100e+02 2.168600e+02 1.040600e+01 1.071200e+01 2.884400e+00 1.356800e-01 9.419900e-04 5.199900e-04 0.000000e+00 0.000000e+00
186 8 8.443910e+02 6.012200e+02 2.214500e+02 8.709900e+00 1.014600e+01 2.796600e+00 7.310200e-02 8.528200e-04 5.018700e-04 0.000000e+00 0.000000e+00
187 336 8.443530e+02 6.019200e+02 2.197600e+02 1.208300e+01 7.751500e+00 2.769100e+00 6.302600e-02 7.848700e-04 3.814700e-06 0.000000e+00 0.000000e+00
188 401 8.442620e+02 5.980000e+02 2.225900e+02 9.396200e+00 1.040500e+01 3.734700e+00 1.359700e-01 9.388900e-04 7.278900e-04 0.000000e+00 0.000000e+00
189 402 8.442340e+02 6.024400e+02 2.181900e+02 9.864500e+00 1.074700e+01 2.866500e+00 1.234800e-01 9.031300e-04 5.412100e-04 0.000000e+00 0.000000e+00
190 328 8.441030e+02 6.017100e+02 2.197000e+02 1.213500e+01 7.851200e+00 2.645300e+00 6.508100e-02 3.700300e-04 1.339900e-04 0.000000e+00 0.000000e+00
191 429 8.440960e+02 5.921500e+02 2.259400e+02 1.241400e+01 1.055100e+01 2.929800e+00 1.070400e-01 9.539100e-04 3.728900e-04 0.000000e+00 0.000000e+00
192 406 8.440030e+02 6.023400e+02 2.190000e+02 8.930100e+00 1.073300e+01 2.876100e+00 1.224100e-01 1.090000e-03 4.651500e-04 0.000000e+00 0.000000e+00
193 423 8.439990e+02 5.928000e+02 2.250000e+02 1.183400e+01 1.058400e+01 3.664700e+00 1.141700e-01 9.210100e-04 7.200200e-04 0.000000e+00 0.000000e+00
194 47 8.439760e+02 5.937900e+02 2.265000e+02 1.053200e+01 1.017000e+01 2.922000e+00 5.962400e-02 1.104100e-03 8.418600e-04 0.000000e+00 0.000000e+00
195 322 8.439650e+02 6.040400e+02 2.191200e+02 1.024800e+01 7.856000e+00 2.637900e+00 6.394500e-02 1.139600e-04 1.230200e-04 0.000000e+00 0.000000e+00
196 14 8.439190e+02 6.013100e+02 2.190700e+02 9.738000e+00 1.023700e+01 3.494500e+00 7.257900e-02 3.099400e-05 4.928100e-04 0.000000e+00 0.000000e+00
197 70 8.438930e+02 6.023400e+02 2.200400e+02 8.666100e+00 9.720400e+00 2.988500e+00 1.392600e-01 1.116000e-03 5.490800e-04 0.000000e+00 0.000000e+00
198 386 8.438740e+02 6.049000e+02 2.169000e+02 8.297500e+00 1.083000e+01 2.823500e+00 1.199400e-01 9.641600e-04 6.210800e-04 0.000000e+00 0.000000e+00
199 445 8.438680e+02 5.935800e+02 2.260000e+02 1.061900e+01 1.060000e+01 2.961300e+00 1.054800e-01 9.942100e-04 3.778900e-04 0.000000e+00 0.000000e+00
200 433 8.438500e+02 5.924700e+02 2.261200e+02 1.163100e+01 1.062400e+01 2.902700e+00 1.034800e-01 9.579700e-04 5.941400e-04 0.000000e+00 0.000000e+00
201 119 8.438090e+02 5.932400e+02 2.265400e+02 1.066600e+01 1.029900e+01 2.957000e+00 1.041700e-01 1.088900e-03 6.108300e-04 0.000000e+00 0.000000e+00
202 109 8.438040e+02 5.924400e+02 2.264400e+02 1.159600e+01 1.027800e+01 2.946900e+00 1.056800e-01 8.399500e-04 7.450600e-04 0.000000e+00 0.000000e+00
203 258 8.438040e+02 6.002300e+02 2.205900e+02 9.568500e+00 1.078300e+01 2.546900e+00 8.235500e-02 1.208800e-04 7.891700e-05 0.000000e+00 0.000000e+00
204 72 8.437480e+02 6.026900e+02 2.195000e+02 8.784000e+00 9.691800e+00 2.952800e+00 1.275100e-01 1.052100e-03 4.680200e-04 0.000000e+00 0.000000e+00
205 413 8.436080e+02 5.991100e+02 2.190800e+02 1.206200e+01 1.029300e+01 2.927000e+00 1.276500e-01 9.899100e-04 5.750700e-04 0.000000e+00 0.000000e+00
206 340 8.435600e+02 6.012500e+02 2.208200e+02 1.122600e+01 7.609800e+00 2.583100e+00 6.487000e-02 7.391000e-05 1.161100e-04 0.000000e+00 0.000000e+00
207 439 8.434800e+02 5.943800e+02 2.244400e+02 1.115900e+01 1.054100e+01 2.861400e+00 9.950400e-02 9.980200e-04 5.521800e-04 0.000000e+00 0.000000e+00
208 10 8.434800e+02 6.014800e+02 2.197000e+02 9.323200e+00 1.011100e+01 2.802100e+00 6.970700e-02 8.468600e-04 7.259800e-04 0.000000e+00 0.000000e+00
209 390 8.434730e+02 6.016300e+02 2.181100e+02 1.004000e+01 1.076100e+01 2.800500e+00 1.240100e-01 1.087200e-03 5.359600e-04 0.000000e+00 0.000000e+00
210 213 8.434470e+02 5.960000e+02 2.211600e+02 1.354500e+01 1.010900e+01 2.559700e+00 7.373100e-02 7.150200e-04 5.006800e-06 0.000000e+00 0.000000e+00
211 111 8.434150e+02 5.926500e+02 2.259200e+02 1.138400e+01 1.038900e+01 2.972200e+00 1.051700e-01 8.149100e-04 5.760200e-04 0.000000e+00 0.000000e+00
212 427 8.433180e+02 5.950100e+02 2.242400e+02 1.047400e+01 1.059300e+01 2.888800e+00 1.127200e-01 9.558200e-04 5.910400e-04 0.000000e+00 0.000000e+00
213 212 8.432870e+02 6.004600e+02 2.197300e+02 1.086100e+01 9.597500e+00 2.538300e+00 9.606800e-02 7.987000e-05 4.053100e-06 0.000000e+00 0.000000e+00
214 404 8.432720e+02 6.018300e+02 2.189200e+02 8.892300e+00 1.068900e+01 2.819800e+00 1.193100e-01 9.760900e-04 6.671000e-04 0.000000e+00 0.000000e+00
215 117 8.432670e+02 5.931800e+02 2.259500e+02 1.072400e+01 1.029900e+01 3.011500e+00 1.030700e-01 1.071000e-03 8.969300e-04 0.000000e+00 0.000000e+00
216 76 8.431760e+02 6.016600e+02 2.186600e+02 1.017100e+01 9.624400e+00 2.939300e+00 1.182700e-01 1.126100e-03 3.490400e-04 0.000000e+00 0.000000e+00
217 103 8.431420e+02 5.939100e+02 2.230500e+02 1.273800e+01 1.036700e+01 2.973000e+00 1.064200e-01 8.649800e-04 4.749300e-04 0.000000e+00 0.000000e+00
218 41 8.430960e+02 5.945900e+02 2.251300e+02 9.411500e+00 1.017300e+01 3.728800e+00 6.032800e-02 1.061900e-03 1.890700e-04 0.000000e+00 0.000000e+00
219 435 8.430850e+02 5.956000e+02 2.236400e+02 1.018500e+01 1.058200e+01 2.967700e+00 1.056300e-01 9.620200e-04 6.320500e-04 0.000000e+00 0.000000e+00
220 276 8.429440e+02 5.990100e+02 2.198400e+02 1.073100e+01 1.071800e+01 2.557900e+00 8.470900e-02 2.310300e-04 1.537800e-04 0.000000e+00 0.000000e+00
221 431 8.429270e+02 5.937600e+02 2.233000e+02 1.217900e+01 1.064100e+01 2.936800e+00 1.093600e-01 9.651200e-04 4.260500e-04 0.000000e+00 0.000000e+00
222 18 8.429210e+02 6.009400e+02 2.199600e+02 8.829600e+00 1.033600e+01 2.776000e+00 7.170400e-02 1.105100e-03 6.699600e-04 0.000000e+00 0.000000e+00
223 82 8.429160e+02 6.016000e+02 2.197200e+02 8.770100e+00 9.679200e+00 3.005800e+00 1.378500e-01 8.399500e-04 5.490800e-04 0.000000e+00 0.000000e+00
224 437 8.429070e+02 5.934200e+02 2.248600e+02 1.101800e+01 1.053300e+01 2.967200e+00 1.087800e-01 9.579700e-04 4.160400e-04 0.000000e+00 0.000000e+00
225 388 8.428900e+02 6.021000e+02 2.178200e+02 8.467500e+00 1.073800e+01 3.610600e+00 1.462000e-01 1.122000e-03 3.769400e-04 0.000000e+00 0.000000e+00
226 78 8.426920e+02 6.017000e+02 2.176000e+02 1.062900e+01 9.680900e+00 2.963800e+00 1.217600e-01 1.133000e-03 5.981900e-04 0.000000e+00 0.000000e+00
227 421 8.426900e+02 5.933300e+02 2.231800e+02 1.265500e+01 1.056600e+01 2.863400e+00 9.184800e-02 1.015900e-03 5.500300e-04 0.000000e+00 0.000000e+00
228 20 8.425580e+02 6.006400e+02 2.204200e+02 8.385600e+00 1.028200e+01 2.754500e+00 7.345400e-02 1.016900e-03 6.868800e-04 0.000000e+00 0.000000e+00
229 74 8.425130e+02 6.018100e+02 2.181100e+02 9.852900e+00 9.679000e+00 2.940800e+00 1.260400e-01 8.561600e-04 4.940000e-04 0.000000e+00 0.000000e+00
230 0 8.425110e+02 5.999600e+02 2.212800e+02 1.047900e+01 1.018300e+01 5.283500e-01 8.146000e-02 4.696800e-05 6.480200e-04 0.000000e+00 0.000000e+00
231 89 8.424300e+02 6.016300e+02 2.160400e+02 1.151400e+01 1.010300e+01 3.014000e+00 1.280900e-01 1.139900e-03 3.361700e-04 0.000000e+00 0.000000e+00
232 400 8.424140e+02 6.020300e+02 2.165400e+02 1.005300e+01 1.079600e+01 2.848400e+00 1.378400e-01 3.399100e-03 2.861000e-06 0.000000e+00 0.000000e+00
233 22 8.424080e+02 6.015000e+02 2.193600e+02 8.622200e+00 1.008200e+01 2.774500e+00 6.928400e-02 1.114100e-03 6.229900e-04 0.000000e+00 0.000000e+00
234 425 8.423870e+02 5.945900e+02 2.232600e+02 1.006100e+01 1.066200e+01 3.689700e+00 1.148400e-01 1.101000e-03 5.300000e-04 0.000000e+00 0.000000e+00
235 66 8.423090e+02 6.030800e+02 2.170200e+02 9.322800e+00 9.728900e+00 3.024300e+00 1.267400e-01 1.094800e-03 5.641000e-04 0.000000e+00 0.000000e+00
236 24 8.422450e+02 6.022100e+02 2.179700e+02 9.130400e+00 1.008200e+01 2.784000e+00 6.798600e-02 8.440000e-04 3.390300e-04 0.000000e+00 0.000000e+00
237 334 8.420070e+02 6.012400e+02 2.175800e+02 1.273900e+01 7.757800e+00 2.624300e+00 6.280100e-02 7.729500e-04 2.861000e-06 0.000000e+00 0.000000e+00
238 68 8.419860e+02 6.007400e+02 2.199200e+02 8.584400e+00 9.676600e+00 2.941300e+00 1.260000e-01 1.087900e-03 9.150500e-04 0.000000e+00 0.000000e+00
239 105 8.419810e+02 5.948900e+02 2.227400e+02 1.086500e+01 1.037200e+01 3.019700e+00 9.985400e-02 8.111000e-04 5.991500e-04 0.000000e+00 0.000000e+00
240 345 8.419450e+02 5.997700e+02 2.163900e+02 1.476600e+01 8.472400e+00 2.489500e+00 5.466100e-02 3.080400e-04 1.440000e-04 0.000000e+00 0.000000e+00
241 359 8.418240e+02 5.909300e+02 2.226000e+02 1.723500e+01 8.529000e+00 2.485000e+00 5.144000e-02 8.599800e-04 4.053100e-06 0.000000e+00 0.000000e+00
242 84 8.417410e+02 6.005800e+02 2.200600e+02 8.351800e+00 9.652800e+00 2.958800e+00 1.333500e-01 8.409000e-04 5.598100e-04 0.000000e+00 0.000000e+00
243 16 8.417210e+02 6.008100e+02 2.180500e+02 9.664300e+00 1.024900e+01 2.880300e+00 6.921100e-02 8.518700e-04 5.359600e-04 0.000000e+00 0.000000e+00
244 178 8.415550e+02 5.938100e+02 2.219800e+02 1.088400e+01 1.114400e+01 3.660400e+00 7.923400e-02 4.351100e-04 7.867800e-06 0.000000e+00 0.000000e+00
245 428 8.414810e+02 5.974100e+02 2.203600e+02 8.931800e+00 1.101700e+01 3.634900e+00 1.197400e-01 9.770400e-04 6.389600e-04 0.000000e+00 0.000000e+00
246 412 8.412760e+02 6.010200e+02 2.153300e+02 1.127400e+01 1.068200e+01 2.831500e+00 1.339000e-01 9.670300e-04 7.238400e-04 0.000000e+00 0.000000e+00
247 80 8.411470e+02 6.017600e+02 2.170500e+02 9.677100e+00 9.604400e+00 2.925000e+00 1.260800e-01 8.459100e-04 3.352200e-04 0.000000e+00 0.000000e+00
248 176 8.410140e+02 5.924800e+02 2.223700e+02 1.132800e+01 1.117600e+01 3.585900e+00 7.985700e-02 4.251000e-04 4.053100e-06 0.000000e+00 0.000000e+00
249 342 8.409920e+02 6.019100e+02 2.172800e+02 1.137400e+01 7.730400e+00 2.625800e+00 6.512400e-02 7.200200e-05 2.570200e-04 0.000000e+00 0.000000e+00
250 419 8.409320e+02 5.935800e+02 2.208900e+02 1.282700e+01 1.063900e+01 2.889300e+00 1.022700e-01 9.710800e-04 7.360000e-04 0.000000e+00 0.000000e+00
251 254 8.407250e+02 5.921500e+02 2.242000e+02 1.184400e+01 9.833500e+00 2.608600e+00 8.550500e-02 1.011800e-03 5.006800e-06 0.000000e+00 0.000000e+00
252 182 8.404080e+02 5.931700e+02 2.216700e+02 1.077500e+01 1.114200e+01 3.575200e+00 7.744600e-02 1.261200e-04 5.006800e-06 0.000000e+00 0.000000e+00
253 86 8.403140e+02 6.018400e+02 2.171000e+02 8.557400e+00 9.695500e+00 2.984700e+00 1.363800e-01 8.440000e-04 7.791500e-04 0.000000e+00 0.000000e+00
254 240 8.402630e+02 5.928100e+02 2.232600e+02 1.088500e+01 9.686800e+00 3.528100e+00 9.656200e-02 7.770100e-04 3.814700e-06 0.000000e+00 0.000000e+00
255 246 8.400830e+02 5.938100e+02 2.223800e+02 1.050700e+01 9.739300e+00 3.554500e+00 9.380500e-02 7.810600e-04 5.006800e-06 0.000000e+00 0.000000e+00
256 408 8.399710e+02 6.020100e+02 2.146000e+02 9.683000e+00 1.068200e+01 2.863300e+00 1.269800e-01 9.791900e-04 6.098700e-04 0.000000e+00 0.000000e+00
257 238 8.399570e+02 5.945500e+02 2.213300e+02 1.066800e+01 9.806700e+00 3.512300e+00 9.647900e-02 8.969300e-04 4.053100e-06 0.000000e+00 0.000000e+00
258 242 8.396620e+02 5.928600e+02 2.225900e+02 1.072800e+01 9.784700e+00 3.604900e+00 9.170700e-02 7.870200e-04 8.106200e-06 0.000000e+00 0.000000e+00
259 190 8.395380e+02 5.911900e+02 2.230700e+02 1.041800e+01 1.114900e+01 3.629900e+00 8.323300e-02 5.900900e-04 2.098100e-05 0.000000e+00 0.000000e+00
260 180 8.395220e+02 5.944200e+02 2.209100e+02 9.366500e+00 1.111000e+01 3.640000e+00 7.963600e-02 4.301100e-04 6.914100e-06 0.000000e+00 0.000000e+00
261 244 8.394630e+02 5.954000e+02 2.217000e+02 8.876400e+00 9.796800e+00 3.598500e+00 9.250400e-02 7.789100e-04 1.788100e-05 0.000000e+00 0.000000e+00
262 169 8.393320e+02 5.916600e+02 2.188900e+02 1.506100e+01 1.106900e+01 2.599300e+00 6.010000e-02 7.398100e-04 4.053100e-06 0.000000e+00 0.000000e+00
263 248 8.390630e+02 5.932600e+02 2.222600e+02 1.018600e+01 9.771200e+00 3.482200e+00 9.579800e-02 1.021100e-03 3.814700e-06 0.000000e+00 0.000000e+00
264 37 8.390460e+02 5.934400e+02 2.210600e+02 1.153800e+01 1.011700e+01 2.834600e+00 5.716600e-02 8.909700e-04 2.889600e-04 0.000000e+00 0.000000e+00
265 172 8.390140e+02 5.907600e+02 2.224400e+02 1.113900e+01 1.099300e+01 3.600700e+00 8.279400e-02 1.788100e-05 4.053100e-06 0.000000e+00 0.000000e+00
266 415 8.389830e+02 5.926900e+02 2.202700e+02 1.262500e+01 1.035000e+01 2.923500e+00 1.277400e-01 9.801400e-04 6.148800e-04 0.000000e+00 0.000000e+00
267 417 8.389420e+02 5.926700e+02 2.200600e+02 1.253700e+01 1.068500e+01 2.885600e+00 1.041200e-01 1.050000e-03 5.469300e-04 0.000000e+00 0.000000e+00
268 252 8.388180e+02 5.938200e+02 2.217200e+02 9.863800e+00 9.760000e+00 3.560100e+00 9.877200e-02 9.441400e-04 4.053100e-06 0.000000e+00 0.000000e+00
269 250 8.387330e+02 5.935700e+02 2.213100e+02 1.042000e+01 9.749000e+00 3.583000e+00 9.275100e-02 2.720400e-04 1.311300e-05 0.000000e+00 0.000000e+00
270 114 8.386310e+02 5.969600e+02 2.196000e+02 9.026500e+00 9.904300e+00 3.013500e+00 1.238600e-01 1.086000e-03 6.680500e-04 0.000000e+00 0.000000e+00
271 151 8.384270e+02 5.951500e+02 2.152100e+02 1.468000e+01 1.069100e+01 2.641000e+00 5.528100e-02 1.049000e-04 5.960500e-06 0.000000e+00 0.000000e+00
272 112 8.383210e+02 5.965200e+02 2.193800e+02 9.359400e+00 9.936100e+00 3.006300e+00 1.152800e-01 8.790500e-04 5.149800e-04 0.000000e+00 0.000000e+00
273 424 8.383030e+02 5.967200e+02 2.180500e+02 8.667300e+00 1.108500e+01 3.655500e+00 1.279400e-01 9.779900e-04 6.370500e-04 0.000000e+00 0.000000e+00
274 150 8.382900e+02 5.986500e+02 2.144200e+02 1.168800e+01 1.086800e+01 2.602700e+00 6.704000e-02 2.098100e-04 7.867800e-06 0.000000e+00 0.000000e+00
275 297 8.380520e+02 5.913400e+02 2.183400e+02 1.496200e+01 1.085300e+01 2.484200e+00 7.411300e-02 2.169600e-04 9.322200e-05 0.000000e+00 0.000000e+00
276 186 8.380510e+02 5.918200e+02 2.212100e+02 1.024000e+01 1.107500e+01 3.634400e+00 7.562100e-02 5.879400e-04 2.002700e-05 0.000000e+00 0.000000e+00
277 174 8.378980e+02 5.919400e+02 2.203400e+02 1.082100e+01 1.110100e+01 3.618800e+00 8.128200e-02 1.502000e-05 5.960500e-06 0.000000e+00 0.000000e+00
278 48 8.378400e+02 5.950000e+02 2.210600e+02 8.585200e+00 1.037700e+01 2.751100e+00 7.007400e-02 1.111000e-03 4.489400e-04 0.000000e+00 0.000000e+00
279 42 8.378060e+02 5.964100e+02 2.194000e+02 8.805700e+00 1.033600e+01 2.793800e+00 6.644900e-02 8.430500e-04 8.420900e-04 0.000000e+00 0.000000e+00
280 54 8.377320e+02 5.954100e+02 2.209100e+02 8.358000e+00 1.027600e+01 2.697000e+00 7.274400e-02 9.951600e-04 2.660800e-04 0.000000e+00 0.000000e+00
281 46 8.376260e+02 5.965000e+02 2.199700e+02 7.915800e+00 1.037700e+01 2.790600e+00 6.837300e-02 9.038400e-04 7.329000e-04 0.000000e+00 0.000000e+00
282 304 8.376100e+02 5.924200e+02 2.198100e+02 1.090300e+01 1.092900e+01 3.446000e+00 9.402600e-02 4.291500e-05 3.814700e-06 0.000000e+00 0.000000e+00
283 108 8.376090e+02 5.956600e+02 2.203200e+02 8.692300e+00 9.885300e+00 2.939600e+00 1.137100e-01 9.651200e-04 1.909700e-04 0.000000e+00 0.000000e+00
284 236 8.375230e+02 5.929300e+02 2.205000e+02 1.077400e+01 9.724200e+00 3.492000e+00 9.853800e-02 9.839500e-04 4.053100e-06 0.000000e+00 0.000000e+00
285 196 8.374950e+02 5.992700e+02 2.149900e+02 1.092700e+01 9.662700e+00 2.559300e+00 9.150800e-02 2.090900e-04 4.053100e-06 0.000000e+00 0.000000e+00
286 302 8.374370e+02 5.933100e+02 2.185900e+02 1.106500e+01 1.092800e+01 3.459600e+00 8.594800e-02 2.884900e-05 1.597400e-05 0.000000e+00 0.000000e+00
287 52 8.374040e+02 5.968500e+02 2.203600e+02 7.048200e+00 1.023400e+01 2.839300e+00 6.889400e-02 1.111000e-03 1.740500e-04 0.000000e+00 0.000000e+00
288 50 8.374000e+02 5.950600e+02 2.207900e+02 8.379600e+00 1.031600e+01 2.782400e+00 7.239300e-02 1.172100e-03 2.899200e-04 0.000000e+00 0.000000e+00
289 414 8.373980e+02 6.020900e+02 2.117400e+02 8.940400e+00 1.078100e+01 3.693700e+00 1.488200e-01 1.090000e-03 3.950600e-04 0.000000e+00 0.000000e+00
290 62 8.373080e+02 5.943600e+02 2.214800e+02 8.072700e+00 1.046400e+01 2.862400e+00 6.860500e-02 1.086000e-03 7.720000e-04 0.000000e+00 0.000000e+00
291 44 8.373000e+02 5.946600e+02 2.211800e+02 8.193400e+00 1.040600e+01 2.787600e+00 6.795600e-02 1.111000e-03 6.067800e-04 0.000000e+00 0.000000e+00
292 188 8.372980e+02 5.925000e+02 2.202400e+02 9.769300e+00 1.106400e+01 3.640100e+00 8.165500e-02 5.960500e-04 2.908700e-05 0.000000e+00 0.000000e+00
293 368 8.372380e+02 5.953800e+02 2.187600e+02 1.134900e+01 8.122400e+00 3.549800e+00 7.485800e-02 1.809600e-04 9.083700e-05 0.000000e+00 0.000000e+00
294 376 8.372350e+02 5.954800e+02 2.191400e+02 1.187800e+01 8.083000e+00 2.591600e+00 6.493800e-02 8.699900e-04 3.814700e-06 0.000000e+00 0.000000e+00
295 26 8.372180e+02 6.014600e+02 2.130900e+02 8.997400e+00 1.005400e+01 3.535800e+00 7.258200e-02 1.160900e-03 5.471700e-04 0.000000e+00 0.000000e+00
296 118 8.371980e+02 5.958800e+02 2.194100e+02 8.989000e+00 9.870600e+00 2.928700e+00 1.172400e-01 1.083100e-03 4.668200e-04 0.000000e+00 0.000000e+00
297 374 8.371870e+02 5.956500e+02 2.188600e+02 1.105700e+01 7.985600e+00 3.565300e+00 7.408400e-02 1.680900e-04 5.006800e-06 0.000000e+00 0.000000e+00
298 426 8.371820e+02 5.964600e+02 2.173500e+02 8.591300e+00 1.101600e+01 3.643500e+00 1.197700e-01 9.861000e-04 5.948500e-04 0.000000e+00 0.000000e+00
299 40 8.371340e+02 5.963700e+02 2.184400e+02 9.028700e+00 1.039100e+01 2.836300e+00 6.901100e-02 8.440000e-04 5.960500e-04 0.000000e+00 0.000000e+00
300 318 8.371160e+02 5.916800e+02 2.202000e+02 1.062000e+01 1.094600e+01 3.574600e+00 9.535000e-02 2.193500e-05 1.502000e-05 0.000000e+00 0.000000e+00
301 436 8.370580e+02 5.971800e+02 2.177200e+02 7.349900e+00 1.100300e+01 3.687200e+00 1.121100e-01 9.369900e-04 3.728900e-04 0.000000e+00 0.000000e+00
302 184 8.370130e+02 5.920000e+02 2.199000e+02 1.040300e+01 1.108400e+01 3.549200e+00 7.596100e-02 6.010500e-04 2.503400e-05 0.000000e+00 0.000000e+00
303 38 8.369860e+02 5.961600e+02 2.189000e+02 8.719300e+00 1.039600e+01 2.745200e+00 6.745600e-02 8.621200e-04 7.050000e-04 0.000000e+00 0.000000e+00
304 56 8.367990e+02 5.950400e+02 2.204400e+02 8.138800e+00 1.031800e+01 2.783100e+00 7.001400e-02 8.554900e-03 4.053100e-06 0.000000e+00 0.000000e+00
305 430 8.367080e+02 5.967700e+02 2.159900e+02 9.128700e+00 1.106600e+01 3.636300e+00 1.139200e-01 9.758500e-04 4.079300e-04 0.000000e+00 0.000000e+00
306 60 8.365420e+02 5.951700e+02 2.201400e+02 7.901200e+00 1.046300e+01 2.803700e+00 6.730500e-02 1.085000e-03 8.599800e-04 0.000000e+00 0.000000e+00
307 58 8.365260e+02 5.958100e+02 2.194000e+02 7.279500e+00 1.042300e+01 3.538000e+00 7.110700e-02 9.679800e-04 4.649200e-04 0.000000e+00 0.000000e+00
308 312 8.364720e+02 5.927600e+02 2.187400e+02 1.053000e+01 1.089600e+01 3.460000e+00 8.853000e-02 2.813300e-05 6.914100e-06 0.000000e+00 0.000000e+00
309 279 8.363850e+02 5.956500e+02 2.131700e+02 1.441800e+01 1.056500e+01 2.498800e+00 7.721900e-02 8.580700e-04 5.006800e-06 0.000000e+00 0.000000e+00
310 306 8.363490e+02 5.916700e+02 2.193600e+02 1.088200e+01 1.087500e+01 3.465700e+00 9.507900e-02 3.480900e-05 9.059900e-06 0.000000e+00 0.000000e+00
311 370 8.363060e+02 5.945100e+02 2.186900e+02 1.128100e+01 8.199600e+00 3.553100e+00 7.502400e-02 1.840600e-04 8.511500e-05 0.000000e+00 0.000000e+00
312 378 8.362630e+02 5.961000e+02 2.174400e+02 1.105300e+01 7.972300e+00 3.622900e+00 7.293700e-02 2.980200e-04 7.152600e-06 0.000000e+00 0.000000e+00
313 110 8.362630e+02 5.964500e+02 2.182100e+02 8.642700e+00 9.905700e+00 2.940300e+00 1.166800e-01 1.091000e-03 8.499600e-04 0.000000e+00 0.000000e+00
314 316 8.362190e+02 5.928500e+02 2.186200e+02 1.026900e+01 1.086800e+01 3.516600e+00 8.588100e-02 2.098100e-05 5.960500e-06 0.000000e+00 0.000000e+00
315 416 8.362110e+02 5.970100e+02 2.140600e+02 1.297700e+01 1.110700e+01 9.463800e-01 1.085100e-01 1.016100e-03 5.509900e-04 0.000000e+00 0.000000e+00
316 314 8.361030e+02 5.924000e+02 2.185200e+02 1.061900e+01 1.086800e+01 3.612400e+00 8.297700e-02 3.504800e-05 4.053100e-06 0.000000e+00 0.000000e+00
317 106 8.360260e+02 5.967100e+02 2.176600e+02 8.722700e+00 9.849100e+00 2.963200e+00 1.136400e-01 1.123000e-03 5.390600e-04 0.000000e+00 0.000000e+00
318 116 8.360020e+02 5.974700e+02 2.178900e+02 7.633600e+00 9.914700e+00 2.983200e+00 1.166800e-01 1.083100e-03 8.671300e-04 0.000000e+00 0.000000e+00
319 124 8.359940e+02 5.949500e+02 2.198700e+02 8.207800e+00 9.879700e+00 2.971400e+00 1.091300e-01 1.020000e-03 4.990100e-04 0.000000e+00 0.000000e+00
320 442 8.359800e+02 5.958500e+02 2.164000e+02 8.948100e+00 1.100300e+01 3.660100e+00 1.170500e-01 9.470000e-04 4.689700e-04 0.000000e+00 0.000000e+00
321 422 8.358850e+02 5.969800e+02 2.150100e+02 9.133900e+00 1.108700e+01 3.562900e+00 1.177200e-01 1.086000e-03 5.471700e-04 0.000000e+00 0.000000e+00
322 434 8.357830e+02 5.959000e+02 2.161600e+02 8.899400e+00 1.100600e+01 3.693700e+00 1.225700e-01 9.770400e-04 6.241800e-04 0.000000e+00 0.000000e+00
323 432 8.356730e+02 5.952100e+02 2.168100e+02 8.856500e+00 1.090700e+01 3.768200e+00 1.252200e-01 1.072200e-03 5.500300e-04 0.000000e+00 0.000000e+00
324 310 8.356710e+02 5.920400e+02 2.184800e+02 1.075000e+01 1.086100e+01 3.443000e+00 9.411000e-02 2.098100e-05 5.006800e-06 0.000000e+00 0.000000e+00
325 300 8.356410e+02 5.921100e+02 2.184400e+02 1.081000e+01 1.080900e+01 3.389200e+00 8.798600e-02 3.004100e-05 1.096700e-05 0.000000e+00 0.000000e+00
326 366 8.356380e+02 5.956300e+02 2.167500e+02 1.135100e+01 8.321800e+00 3.517600e+00 7.046900e-02 2.930200e-04 5.960500e-06 0.000000e+00 0.000000e+00
327 122 8.356350e+02 5.953900e+02 2.189100e+02 8.352800e+00 9.903300e+00 2.956300e+00 1.169900e-01 1.117000e-03 7.638900e-04 0.000000e+00 0.000000e+00
328 438 8.356200e+02 5.949600e+02 2.170300e+02 8.886300e+00 1.099000e+01 3.632500e+00 1.181200e-01 9.598700e-04 6.167900e-04 0.000000e+00 0.000000e+00
329 440 8.355700e+02 5.959300e+02 2.162800e+02 8.578800e+00 1.100400e+01 3.633700e+00 1.354300e-01 8.280300e-04 7.929800e-04 0.000000e+00 0.000000e+00
330 380 8.355240e+02 5.955100e+02 2.175500e+02 1.082100e+01 7.961900e+00 3.616400e+00 7.255500e-02 3.249600e-04 6.294300e-05 0.000000e+00 0.000000e+00
331 420 8.354040e+02 5.974400e+02 2.141600e+02 9.053800e+00 1.104900e+01 3.570300e+00 1.243100e-01 9.098100e-04 5.681500e-04 0.000000e+00 0.000000e+00
332 308 8.352680e+02 5.929500e+02 2.186500e+02 9.222400e+00 1.088300e+01 3.471100e+00 8.655300e-02 2.288800e-05 1.001400e-05 0.000000e+00 0.000000e+00
333 27 8.350660e+02 5.995000e+02 2.105800e+02 1.214400e+01 9.895500e+00 2.891300e+00 6.017300e-02 1.166100e-03 5.369200e-04 0.000000e+00 0.000000e+00
334 344 8.349060e+02 6.017500e+02 2.106800e+02 1.192300e+01 7.824000e+00 2.664300e+00 6.321600e-02 1.659400e-04 9.608300e-05 0.000000e+00 0.000000e+00
335 126 8.347040e+02 5.934300e+02 2.197800e+02 8.591700e+00 9.818200e+00 2.977400e+00 1.082200e-01 1.054000e-03 4.589600e-04 0.000000e+00 0.000000e+00
336 382 8.346880e+02 5.938900e+02 2.178100e+02 1.125100e+01 8.021500e+00 3.635500e+00 7.399900e-02 2.961200e-04 1.418600e-04 0.000000e+00 0.000000e+00
337 362 8.346740e+02 5.971100e+02 2.156500e+02 1.077800e+01 7.499200e+00 3.565300e+00 7.090800e-02 1.800100e-04 8.511500e-05 0.000000e+00 0.000000e+00
338 120 8.346450e+02 5.946100e+02 2.185600e+02 8.543500e+00 9.890500e+00 2.931800e+00 1.151900e-01 1.160900e-03 2.179100e-04 0.000000e+00 0.000000e+00
339 104 8.344560e+02 5.974000e+02 2.148400e+02 9.150800e+00 9.864200e+00 3.086100e+00 1.145700e-01 1.045900e-03 3.640700e-04 0.000000e+00 0.000000e+00
340 347 8.341860e+02 5.991700e+02 2.086000e+02 1.546800e+01 8.449300e+00 2.448500e+00 5.275500e-02 3.449900e-04 9.298300e-05 0.000000e+00 0.000000e+00
341 233 8.341640e+02 5.925000e+02 2.140100e+02 1.453600e+01 1.044300e+01 2.592700e+00 8.009900e-02 6.461100e-04 4.053100e-06 0.000000e+00 0.000000e+00
342 372 8.340070e+02 5.967500e+02 2.161900e+02 9.451500e+00 7.955500e+00 3.591500e+00 6.889300e-02 1.699900e-04 2.679800e-04 0.000000e+00 0.000000e+00
343 357 8.340030e+02 5.917200e+02 2.144700e+02 1.670600e+01 8.559300e+00 2.488100e+00 5.533600e-02 8.289800e-04 3.814700e-06 0.000000e+00 0.000000e+00
344 418 8.337550e+02 5.956100e+02 2.134300e+02 9.919600e+00 1.106700e+01 3.598800e+00 1.271000e-01 9.322200e-04 5.831700e-04 0.000000e+00 0.000000e+00
345 446 8.335360e+02 5.945400e+02 2.150700e+02 9.024800e+00 1.102900e+01 3.761600e+00 1.143200e-01 1.148000e-03 7.250300e-04 0.000000e+00 0.000000e+00
346 88 8.335220e+02 5.991300e+02 2.122300e+02 9.333700e+00 9.676300e+00 3.004800e+00 1.376100e-01 1.116000e-03 7.488700e-04 0.000000e+00 0.000000e+00
347 170 8.331470e+02 5.929600e+02 2.144000e+02 1.100200e+01 1.106600e+01 3.646400e+00 7.860400e-02 6.458800e-04 5.006800e-06 0.000000e+00 0.000000e+00
348 214 8.323740e+02 6.004100e+02 2.088000e+02 1.089400e+01 9.619100e+00 2.555300e+00 9.398200e-02 7.915500e-05 5.960500e-06 0.000000e+00 0.000000e+00
349 278 8.322930e+02 5.998400e+02 2.083200e+02 1.080400e+01 1.072200e+01 2.526400e+00 7.965300e-02 2.238800e-04 2.560600e-04 0.000000e+00 0.000000e+00
350 13 8.318190e+02 5.958800e+02 2.122400e+02 1.082500e+01 9.828800e+00 2.974000e+00 6.190000e-02 1.068100e-03 1.559300e-04 0.000000e+00 0.000000e+00
351 167 8.305300e+02 5.884300e+02 2.117000e+02 1.667100e+01 1.101600e+01 2.652900e+00 6.337300e-02 5.309600e-04 1.692800e-05 0.000000e+00 0.000000e+00
352 360 8.302790e+02 5.967800e+02 2.112500e+02 1.093700e+01 7.539200e+00 3.700900e+00 6.688000e-02 1.800100e-04 8.797600e-05 0.000000e+00 0.000000e+00
353 215 8.301500e+02 5.969000e+02 2.061300e+02 1.431000e+01 1.010200e+01 2.624400e+00 8.590000e-02 8.099100e-04 8.106200e-06 0.000000e+00 0.000000e+00
354 102 8.298630e+02 5.968300e+02 2.108900e+02 9.160900e+00 9.939800e+00 2.931800e+00 1.060500e-01 1.108200e-03 8.370900e-04 0.000000e+00 0.000000e+00
355 298 8.298230e+02 5.939300e+02 2.109300e+02 1.059600e+01 1.085500e+01 3.430000e+00 8.063600e-02 3.719300e-05 7.152600e-06 0.000000e+00 0.000000e+00
356 234 8.293100e+02 5.948600e+02 2.106200e+02 1.049400e+01 9.714700e+00 3.527900e+00 9.798300e-02 9.870500e-04 4.053100e-06 0.000000e+00 0.000000e+00
357 101 8.290130e+02 5.937200e+02 2.095100e+02 1.233700e+01 1.036100e+01 2.972200e+00 1.111800e-01 1.152000e-03 1.611700e-04 0.000000e+00 0.000000e+00
358 346 8.284800e+02 6.020300e+02 2.032800e+02 1.279400e+01 7.694400e+00 2.618700e+00 6.240500e-02 9.608300e-05 1.211200e-04 0.000000e+00 0.000000e+00
359 152 8.269620e+02 5.979500e+02 2.025700e+02 1.294100e+01 1.080900e+01 2.619400e+00 6.578800e-02 5.128400e-04 5.006800e-06 0.000000e+00 0.000000e+00
360 355 8.263250e+02 5.931800e+02 2.054600e+02 1.664900e+01 8.548200e+00 2.436100e+00 5.508300e-02 3.068400e-04 2.529600e-04 0.000000e+00 0.000000e+00
361 153 8.260950e+02 5.975400e+02 2.003200e+02 1.472400e+01 1.079400e+01 2.650700e+00 5.620300e-02 7.069100e-04 1.597400e-05 0.000000e+00 0.000000e+00
362 349 8.255360e+02 5.981000e+02 2.004600e+02 1.624500e+01 8.213000e+00 2.460500e+00 5.568100e-02 3.051800e-04 2.217300e-05 0.000000e+00 0.000000e+00
363 90 8.252950e+02 6.004200e+02 2.022800e+02 9.797200e+00 9.651100e+00 3.012800e+00 1.274200e-01 7.870200e-04 7.700900e-04 0.000000e+00 0.000000e+00
364 448 8.252870e+02 5.951400e+02 2.060000e+02 1.453900e+01 8.957400e+00 6.023200e-01 5.555400e-02 1.003000e-03 5.559900e-04 0.000000e+00 0.000000e+00
365 453 8.246910e+02 5.953500e+02 2.065700e+02 1.008100e+01 9.636100e+00 2.981500e+00 7.040000e-02 9.410400e-04 5.478900e-04 0.000000e+00 0.000000e+00
366 475 8.246880e+02 5.977700e+02 2.042400e+02 9.956400e+00 9.692500e+00 2.960800e+00 6.653600e-02 1.126100e-03 4.441700e-04 0.000000e+00 0.000000e+00
367 457 8.246670e+02 5.972800e+02 2.053400e+02 9.352700e+00 9.664200e+00 2.960300e+00 6.930100e-02 1.143000e-03 4.820800e-04 0.000000e+00 0.000000e+00
368 295 8.246640e+02 5.882000e+02 2.061300e+02 1.698100e+01 1.082900e+01 2.450700e+00 6.893500e-02 1.640300e-04 4.053100e-06 0.000000e+00 0.000000e+00
369 469 8.244760e+02 5.972200e+02 2.057700e+02 8.739200e+00 9.643500e+00 3.036700e+00 6.810200e-02 1.143000e-03 3.809900e-04 0.000000e+00 0.000000e+00
370 471 8.242980e+02 5.973400e+02 2.050600e+02 9.143400e+00 9.676700e+00 3.012800e+00 7.086800e-02 9.930100e-04 3.988700e-04 0.000000e+00 0.000000e+00
371 29 8.238400e+02 5.993800e+02 1.993900e+02 1.221200e+01 9.911700e+00 2.884900e+00 6.190200e-02 1.004900e-03 1.537800e-04 0.000000e+00 0.000000e+00
372 35 8.237720e+02 5.947700e+02 2.045300e+02 1.143300e+01 1.013700e+01 2.848200e+00 5.729600e-02 1.056900e-03 3.819500e-04 0.000000e+00 0.000000e+00
373 449 8.235210e+02 5.951900e+02 2.063000e+02 9.258700e+00 9.679900e+00 3.013500e+00 6.943400e-02 1.136100e-03 3.941100e-04 0.000000e+00 0.000000e+00
374 455 8.234380e+02 5.982000e+02 2.036100e+02 8.945200e+00 9.652900e+00 2.952300e+00 6.852800e-02 9.260200e-04 8.561600e-04 0.000000e+00 0.000000e+00
375 168 8.233590e+02 5.923400e+02 2.053900e+02 1.076200e+01 1.117400e+01 3.612200e+00 8.054400e-02 1.883500e-05 4.053100e-06 0.000000e+00 0.000000e+00
376 477 8.232900e+02 5.965600e+02 2.032900e+02 1.072100e+01 9.690900e+00 2.961600e+00 6.952700e-02 9.539100e-04 4.301100e-04 0.000000e+00 0.000000e+00
377 467 8.232700e+02 5.961700e+02 2.047900e+02 9.578400e+00 9.651900e+00 3.008000e+00 6.824000e-02 1.143000e-03 5.409700e-04 0.000000e+00 0.000000e+00
378 465 8.231750e+02 5.974700e+02 2.036800e+02 9.286800e+00 9.663700e+00 3.004600e+00 7.205800e-02 9.808500e-04 5.590900e-04 0.000000e+00 0.000000e+00
379 456 8.225860e+02 5.952500e+02 2.028000e+02 1.222400e+01 9.369000e+00 2.881000e+00 5.949400e-02 9.670300e-04 5.202300e-04 0.000000e+00 0.000000e+00
380 462 8.225420e+02 5.949400e+02 2.026900e+02 1.257600e+01 9.362300e+00 2.911300e+00 5.807800e-02 9.670300e-04 5.171300e-04 0.000000e+00 0.000000e+00
381 28 8.222670e+02 6.006200e+02 1.981300e+02 1.066900e+01 1.004200e+01 2.731100e+00 6.995400e-02 8.389900e-04 5.281000e-04 0.000000e+00 0.000000e+00
382 461 8.222560e+02 5.976100e+02 2.028900e+02 9.015200e+00 9.654200e+00 3.015000e+00 6.863900e-02 1.142000e-03 5.269100e-04 0.000000e+00 0.000000e+00
383 507 8.222050e+02 5.915200e+02 2.082400e+02 9.563000e+00 9.827100e+00 2.987100e+00 6.544000e-02 9.820500e-04 5.550400e-04 0.000000e+00 0.000000e+00
384 454 8.221410e+02 5.956500e+02 2.020800e+02 1.209300e+01 9.371200e+00 2.886500e+00 6.052100e-02 9.019400e-04 6.990400e-04 0.000000e+00 0.000000e+00
385 358 8.219450e+02 5.958900e+02 2.033000e+02 1.128000e+01 7.705800e+00 3.702200e+00 6.918600e-02 5.579000e-05 1.709500e-04 0.000000e+00 0.000000e+00
386 460 8.219380e+02 5.952100e+02 2.023900e+02 1.206000e+01 9.349200e+00 2.864900e+00 5.895500e-02 9.670300e-04 6.139300e-04 0.000000e+00 0.000000e+00
387 451 8.219200e+02 5.966500e+02 2.038800e+02 8.638300e+00 9.682100e+00 2.998700e+00 6.778700e-02 9.989700e-04 5.550400e-04 0.000000e+00 0.000000e+00
388 505 8.218980e+02 5.913100e+02 2.077100e+02 1.001100e+01 9.832100e+00 2.971400e+00 6.611200e-02 1.109800e-03 4.408400e-04 0.000000e+00 0.000000e+00
389 493 8.218810e+02 5.913800e+02 2.066200e+02 1.098900e+01 9.868000e+00 2.957800e+00 6.261100e-02 9.279300e-04 7.638900e-04 0.000000e+00 0.000000e+00
390 459 8.218150e+02 5.972700e+02 2.025000e+02 9.385300e+00 9.661800e+00 2.926900e+00 7.080300e-02 1.136100e-03 4.210500e-04 0.000000e+00 0.000000e+00
391 36 8.217890e+02 5.970800e+02 2.033500e+02 8.192600e+00 1.031000e+01 2.783500e+00 6.947800e-02 8.230200e-04 3.471400e-04 0.000000e+00 0.000000e+00
392 495 8.217870e+02 5.933600e+02 2.047300e+02 1.070300e+01 9.930100e+00 2.997000e+00 6.253400e-02 1.115100e-03 3.919600e-04 0.000000e+00 0.000000e+00
393 487 8.217560e+02 5.904700e+02 2.069800e+02 1.140200e+01 9.888600e+00 2.953800e+00 5.888200e-02 1.051900e-03 5.500300e-04 0.000000e+00 0.000000e+00
394 476 8.217410e+02 5.926100e+02 2.031400e+02 1.382100e+01 9.286500e+00 2.826300e+00 6.021400e-02 9.892000e-04 5.250000e-04 0.000000e+00 0.000000e+00
395 452 8.217190e+02 5.950400e+02 2.024300e+02 1.194200e+01 9.363400e+00 2.886700e+00 5.909900e-02 9.961100e-04 3.919600e-04 0.000000e+00 0.000000e+00
396 489 8.215660e+02 5.938900e+02 2.049700e+02 9.747700e+00 9.911700e+00 2.983300e+00 6.373900e-02 9.729900e-04 6.392000e-04 0.000000e+00 0.000000e+00
397 463 8.214580e+02 5.977000e+02 2.022000e+02 8.814700e+00 9.687700e+00 2.984700e+00 6.901000e-02 8.430500e-04 7.050000e-04 0.000000e+00 0.000000e+00
398 499 8.214170e+02 5.940600e+02 2.056200e+02 8.830100e+00 9.840000e+00 3.005300e+00 6.008800e-02 1.028100e-03 6.160700e-04 0.000000e+00 0.000000e+00
399 509 8.212820e+02 5.921000e+02 2.070000e+02 9.298000e+00 9.848900e+00 2.973600e+00 6.367600e-02 1.117000e-03 4.379700e-04 0.000000e+00 0.000000e+00
400 485 8.212130e+02 5.904400e+02 2.066800e+02 1.121000e+01 9.875400e+00 2.944800e+00 6.066200e-02 9.830000e-04 5.571800e-04 0.000000e+00 0.000000e+00
401 470 8.210360e+02 5.950000e+02 2.025200e+02 1.120000e+01 9.338500e+00 2.910800e+00 6.056900e-02 9.810900e-04 7.321800e-04 0.000000e+00 0.000000e+00
402 501 8.209390e+02 5.920200e+02 2.062800e+02 9.745900e+00 9.812300e+00 3.016800e+00 6.236100e-02 8.659400e-04 8.049000e-04 0.000000e+00 0.000000e+00
403 450 8.206840e+02 5.967100e+02 2.012900e+02 1.030900e+01 9.397800e+00 2.916100e+00 6.088100e-02 9.372200e-04 4.499000e-04 0.000000e+00 0.000000e+00
404 464 8.206240e+02 5.948700e+02 2.010900e+02 1.236800e+01 9.355500e+00 2.880400e+00 6.238700e-02 9.501000e-04 4.150900e-04 0.000000e+00 0.000000e+00
405 468 8.205560e+02 5.948700e+02 2.021400e+02 1.134600e+01 9.307700e+00 2.829300e+00 5.920100e-02 1.077200e-03 5.219000e-04 0.000000e+00 0.000000e+00
406 491 8.204920e+02 5.941500e+02 2.042800e+02 9.179400e+00 9.881300e+00 2.938600e+00 6.155100e-02 1.118900e-03 3.950600e-04 0.000000e+00 0.000000e+00
407 458 8.204100e+02 5.955500e+02 2.001200e+02 1.243100e+01 9.356700e+00 2.898000e+00 5.617600e-02 9.908700e-04 7.000000e-04 0.000000e+00 0.000000e+00
408 466 8.203560e+02 5.949200e+02 2.011400e+02 1.200000e+01 9.324800e+00 2.908300e+00 6.005800e-02 9.291200e-04 7.119200e-04 0.000000e+00 0.000000e+00
409 281 8.203530e+02 5.977200e+02 1.948700e+02 1.457600e+01 1.062300e+01 2.489700e+00 7.746000e-02 2.100500e-04 9.298300e-05 0.000000e+00 0.000000e+00
410 478 8.203300e+02 5.948400e+02 2.005000e+02 1.265300e+01 9.466000e+00 2.807000e+00 5.926100e-02 1.073800e-03 3.969700e-04 0.000000e+00 0.000000e+00
411 503 8.203010e+02 5.917500e+02 2.058400e+02 9.886100e+00 9.809500e+00 2.952800e+00 6.269100e-02 1.121000e-03 5.469300e-04 0.000000e+00 0.000000e+00
412 91 8.202380e+02 6.001600e+02 1.943500e+02 1.261600e+01 1.008500e+01 2.907600e+00 1.237900e-01 1.095100e-03 6.640000e-04 0.000000e+00 0.000000e+00
413 497 8.201460e+02 5.906100e+02 2.063900e+02 1.026400e+01 9.870600e+00 2.950000e+00 6.338500e-02 9.510500e-04 5.409700e-04 0.000000e+00 0.000000e+00
414 483 8.200750e+02 5.922700e+02 2.036100e+02 1.129900e+01 9.886900e+00 2.949000e+00 5.989600e-02 9.369900e-04 6.799700e-04 0.000000e+00 0.000000e+00
415 480 8.200590e+02 5.888000e+02 2.051000e+02 1.650000e+01 9.531700e+00 6.792200e-02 5.572600e-02 6.570800e-04 5.519400e-04 0.000000e+00 0.000000e+00
416 348 8.200130e+02 6.002300e+02 1.956300e+02 1.382200e+01 7.701600e+00 2.563800e+00 6.635500e-02 7.700900e-05 1.158700e-04 0.000000e+00 0.000000e+00
417 472 8.197380e+02 5.953100e+02 2.004000e+02 1.171200e+01 9.306100e+00 2.942600e+00 6.206200e-02 1.147000e-03 9.069400e-04 0.000000e+00 0.000000e+00
418 353 8.196450e+02 5.919800e+02 2.000100e+02 1.631400e+01 8.803200e+00 2.476200e+00 5.965600e-02 2.081400e-04 9.298300e-05 0.000000e+00 0.000000e+00
419 444 8.194180e+02 5.904400e+02 2.059800e+02 8.075000e+00 1.097300e+01 3.826100e+00 1.179100e-01 1.070000e-03 3.969700e-04 0.000000e+00 0.000000e+00
420 474 8.193460e+02 5.943900e+02 2.001100e+02 1.258900e+01 9.317800e+00 2.874200e+00 5.808000e-02 1.120100e-03 5.388300e-04 0.000000e+00 0.000000e+00
421 481 8.193280e+02 5.909400e+02 2.042700e+02 1.119400e+01 9.928400e+00 2.924400e+00 6.469500e-02 9.920600e-04 5.569500e-04 0.000000e+00 0.000000e+00
422 479 8.192550e+02 5.901600e+02 2.051300e+02 1.120200e+01 9.746100e+00 2.943500e+00 6.824900e-02 8.490100e-04 6.101100e-04 0.000000e+00 0.000000e+00
423 280 8.188320e+02 5.993800e+02 1.942100e+02 1.182900e+01 1.072500e+01 2.606000e+00 8.294000e-02 2.989800e-04 5.960500e-06 0.000000e+00 0.000000e+00
424 296 8.177500e+02 5.931900e+02 1.992200e+02 1.080300e+01 1.096800e+01 3.481600e+00 8.472800e-02 2.503400e-05 5.960500e-06 0.000000e+00 0.000000e+00
425 364 8.176620e+02 5.849300e+02 2.115100e+02 1.026600e+01 7.158200e+00 3.731600e+00 6.995900e-02 1.800100e-04 8.392300e-05 0.000000e+00 0.000000e+00
426 351 8.173970e+02 5.909200e+02 1.986400e+02 1.686100e+01 8.451700e+00 2.469800e+00 5.670200e-02 3.140000e-04 4.506100e-05 0.000000e+00 0.000000e+00
427 496 8.165920e+02 5.889900e+02 2.027800e+02 1.238800e+01 9.534100e+00 2.830600e+00 6.074200e-02 6.039100e-04 7.381400e-04 0.000000e+00 0.000000e+00
428 231 8.162720e+02 5.894300e+02 1.971900e+02 1.666100e+01 1.038000e+01 2.536100e+00 7.959500e-02 6.828300e-04 7.152600e-06 0.000000e+00 0.000000e+00
429 490 8.161410e+02 5.901100e+02 2.019900e+02 1.161700e+01 9.491900e+00 2.870100e+00 5.908800e-02 6.289500e-04 6.339600e-04 0.000000e+00 0.000000e+00
430 492 8.159720e+02 5.884000e+02 2.030400e+02 1.211600e+01 9.486100e+00 2.864500e+00 6.241600e-02 7.929800e-04 4.479900e-04 0.000000e+00 0.000000e+00
431 498 8.157110e+02 5.891800e+02 2.019000e+02 1.212700e+01 9.532900e+00 2.910600e+00 5.990000e-02 6.299000e-04 3.881500e-04 0.000000e+00 0.000000e+00
432 232 8.156460e+02 5.953200e+02 1.962300e+02 1.056800e+01 9.751800e+00 3.677600e+00 9.849800e-02 9.789500e-04 5.960500e-06 0.000000e+00 0.000000e+00
433 488 8.151510e+02 5.907300e+02 2.002100e+02 1.172500e+01 9.505600e+00 2.923200e+00 5.961600e-02 6.220300e-04 4.711200e-04 0.000000e+00 0.000000e+00
434 33 8.149760e+02 5.937800e+02 1.962700e+02 1.183800e+01 1.020200e+01 2.827000e+00 6.031100e-02 1.112000e-03 7.171600e-04 0.000000e+00 0.000000e+00
435 482 8.145890e+02 5.875800e+02 2.015200e+02 1.288300e+01 9.692200e+00 2.852800e+00 5.968300e-02 7.710500e-04 4.210500e-04 0.000000e+00 0.000000e+00
436 486 8.145880e+02 5.896900e+02 2.000000e+02 1.235600e+01 9.605900e+00 2.875700e+00 5.804500e-02 5.998600e-04 6.630400e-04 0.000000e+00 0.000000e+00
437 510 8.145850e+02 5.865600e+02 2.027900e+02 1.271600e+01 9.510100e+00 2.945000e+00 5.694400e-02 7.700900e-04 4.410700e-04 0.000000e+00 0.000000e+00
438 500 8.145460e+02 5.908800e+02 2.008300e+02 1.032900e+01 9.516000e+00 2.928200e+00 5.641400e-02 7.989400e-04 8.649800e-04 0.000000e+00 0.000000e+00
439 508 8.141520e+02 5.896400e+02 2.005500e+02 1.152900e+01 9.476500e+00 2.894000e+00 5.767000e-02 6.468300e-04 5.519400e-04 0.000000e+00 0.000000e+00
440 504 8.136740e+02 5.884700e+02 2.010000e+02 1.165500e+01 9.544000e+00 2.938600e+00 6.084200e-02 7.298000e-04 3.731300e-04 0.000000e+00 0.000000e+00
441 166 8.136630e+02 5.939700e+02 1.935400e+02 1.131200e+01 1.115000e+01 3.611800e+00 7.789700e-02 2.059900e-04 5.006800e-06 0.000000e+00 0.000000e+00
442 494 8.130570e+02 5.901700e+02 1.984300e+02 1.203000e+01 9.514100e+00 2.850500e+00 5.956800e-02 6.048700e-04 6.270400e-04 0.000000e+00 0.000000e+00
443 31 8.129870e+02 5.921600e+02 1.954300e+02 1.250800e+01 9.968200e+00 2.857800e+00 6.149000e-02 1.117900e-03 8.380400e-04 0.000000e+00 0.000000e+00
444 502 8.125510e+02 5.899000e+02 1.982500e+02 1.196200e+01 9.516200e+00 2.862100e+00 6.012800e-02 6.010500e-04 4.727800e-04 0.000000e+00 0.000000e+00
445 506 8.123950e+02 5.882700e+02 1.999600e+02 1.170800e+01 9.486600e+00 2.911900e+00 6.075800e-02 6.418200e-04 5.550400e-04 0.000000e+00 0.000000e+00
446 30 8.123470e+02 6.018800e+02 1.880800e+02 9.394700e+00 1.014600e+01 2.774400e+00 7.110600e-02 8.440000e-04 5.140300e-04 0.000000e+00 0.000000e+00
447 34 8.122930e+02 5.951800e+02 1.945400e+02 9.409000e+00 1.033900e+01 2.754600e+00 7.065100e-02 1.108900e-03 5.469300e-04 0.000000e+00 0.000000e+00
448 350 8.120150e+02 6.020300e+02 1.871400e+02 1.243600e+01 7.748300e+00 2.597400e+00 6.517300e-02 8.106200e-05 1.180200e-04 0.000000e+00 0.000000e+00
449 473 8.119970e+02 5.979100e+02 1.920600e+02 9.227100e+00 9.704300e+00 3.021300e+00 6.932300e-02 8.227800e-04 7.488700e-04 0.000000e+00 0.000000e+00
450 484 8.119190e+02 5.888200e+02 1.989200e+02 1.178600e+01 9.495900e+00 2.840100e+00 5.892800e-02 6.029600e-04 4.510900e-04 0.000000e+00 0.000000e+00
451 356 8.117820e+02 5.941900e+02 1.952900e+02 1.077300e+01 7.824700e+00 3.625000e+00 7.359200e-02 1.540200e-04 2.808600e-04 0.000000e+00 0.000000e+00
452 216 8.115300e+02 5.974500e+02 1.894100e+02 1.230700e+01 9.611300e+00 2.656000e+00 9.340600e-02 4.940000e-04 6.914100e-06 0.000000e+00 0.000000e+00
453 352 8.088980e+02 5.955400e+02 1.894600e+02 1.476700e+01 7.980100e+00 1.080700e+00 6.836200e-02 5.507500e-05 9.894400e-05 0.000000e+00 0.000000e+00
454 217 8.079290e+02 5.980600e+02 1.827500e+02 1.425200e+01 1.018300e+01 2.608100e+00 8.312800e-02 6.899800e-04 4.768400e-06 0.000000e+00 0.000000e+00
455 354 8.072020e+02 5.938200e+02 1.899300e+02 1.190100e+01 7.932200e+00 3.551400e+00 6.962800e-02 1.270800e-04 1.349400e-04 0.000000e+00 0.000000e+00
456 154 8.067550e+02 5.992900e+02 1.808900e+02 1.294700e+01 1.087400e+01 2.676800e+00 6.677200e-02 4.568100e-04 3.814700e-06 0.000000e+00 0.000000e+00
457 165 8.056730e+02 5.884900e+02 1.867600e+02 1.679900e+01 1.100300e+01 2.558400e+00 6.083400e-02 5.369200e-04 3.099400e-05 0.000000e+00 0.000000e+00
458 100 8.051880e+02 5.965400e+02 1.871700e+02 8.556800e+00 9.837800e+00 2.968300e+00 1.133600e-01 9.210100e-04 1.552100e-04 0.000000e+00 0.000000e+00
459 99 8.036150e+02 5.956800e+02 1.821600e+02 1.234400e+01 1.040000e+01 2.938900e+00 9.826200e-02 8.299400e-04 5.438300e-04 0.000000e+00 0.000000e+00
460 293 8.026170e+02 5.887300e+02 1.842700e+02 1.523200e+01 1.086600e+01 3.437400e+00 7.728100e-02 1.709500e-04 9.989700e-05 0.000000e+00 0.000000e+00
461 92 8.013040e+02 5.997900e+02 1.780900e+02 1.061600e+01 9.661900e+00 3.005400e+00 1.327800e-01 1.098200e-03 8.928800e-04 0.000000e+00 0.000000e+00
462 294 8.009830e+02 5.938000e+02 1.812800e+02 1.137900e+01 1.096200e+01 3.472400e+00 8.634500e-02 1.406700e-05 5.960500e-06 0.000000e+00 0.000000e+00
463 282 8.007470e+02 5.987300e+02 1.764500e+02 1.217800e+01 1.072300e+01 2.587200e+00 8.053900e-02 2.989800e-04 8.606900e-05 0.000000e+00 0.000000e+00
464 32 8.007380e+02 5.958900e+02 1.810200e+02 1.327900e+01 1.041400e+01 7.249800e-02 6.688800e-02 1.097900e-03 5.540800e-04 0.000000e+00 0.000000e+00
465 93 7.996330e+02 5.999600e+02 1.739700e+02 1.249200e+01 1.009800e+01 2.988600e+00 1.294000e-01 1.096000e-03 5.619500e-04 0.000000e+00 0.000000e+00
466 283 7.961400e+02 5.953400e+02 1.726600e+02 1.505600e+01 1.057000e+01 2.438100e+00 7.757400e-02 8.399500e-04 2.861000e-06 0.000000e+00 0.000000e+00
467 155 7.931000e+02 5.970900e+02 1.665400e+02 1.612700e+01 1.074000e+01 2.545400e+00 5.584700e-02 7.989400e-04 8.821500e-06 0.000000e+00 0.000000e+00
468 97 7.893770e+02 5.953000e+02 1.680400e+02 1.253000e+01 1.044000e+01 2.959800e+00 1.028700e-01 1.090000e-03 4.520400e-04 0.000000e+00 0.000000e+00
469 191 7.887430e+02 5.888500e+02 1.753800e+02 1.233200e+01 1.092200e+01 1.200400e+00 6.181100e-02 8.690400e-04 4.053100e-06 0.000000e+00 0.000000e+00
470 319 7.882010e+02 5.895700e+02 1.742600e+02 1.245000e+01 1.068600e+01 1.154500e+00 7.873000e-02 3.349800e-04 3.089900e-04 0.000000e+00 0.000000e+00
471 383 7.874330e+02 5.897300e+02 1.751600e+02 1.274100e+01 8.568400e+00 1.180400e+00 5.041700e-02 3.240100e-04 3.089900e-04 0.000000e+00 0.000000e+00
472 230 7.871200e+02 5.936400e+02 1.691800e+02 1.073800e+01 9.756700e+00 3.711700e+00 9.706700e-02 9.598700e-04 4.053100e-06 0.000000e+00 0.000000e+00
473 255 7.861910e+02 5.873200e+02 1.748300e+02 1.251800e+01 1.030300e+01 1.143100e+00 7.183300e-02 9.961100e-04 5.960500e-06 0.000000e+00 0.000000e+00
474 218 7.860880e+02 5.997200e+02 1.620000e+02 1.211500e+01 9.545300e+00 2.615400e+00 8.913900e-02 5.040200e-04 1.192100e-05 0.000000e+00 0.000000e+00
475 98 7.859740e+02 5.953700e+02 1.677600e+02 9.949900e+00 9.859000e+00 2.920500e+00 1.171700e-01 9.219600e-04 2.799000e-04 0.000000e+00 0.000000e+00
476 229 7.855150e+02 5.896200e+02 1.662300e+02 1.666800e+01 1.038100e+01 2.538800e+00 8.577400e-02 5.660100e-04 5.006800e-06 0.000000e+00 0.000000e+00
477 95 7.854360e+02 5.938000e+02 1.654600e+02 1.288900e+01 1.015600e+01 3.008200e+00 1.209600e-01 1.082900e-03 8.540200e-04 0.000000e+00 0.000000e+00
478 94 7.832940e+02 6.015600e+02 1.597300e+02 9.306500e+00 9.584900e+00 2.977800e+00 1.342200e-01 1.073100e-03 7.259800e-04 0.000000e+00 0.000000e+00
479 63 7.821230e+02 5.925400e+02 1.701300e+02 8.069800e+00 1.005000e+01 1.281700e+00 4.982900e-02 8.890600e-04 4.749300e-04 0.000000e+00 0.000000e+00
480 127 7.803120e+02 5.899200e+02 1.697700e+02 8.850100e+00 1.022900e+01 1.437600e+00 9.955200e-02 7.629400e-04 5.669600e-04 0.000000e+00 0.000000e+00
481 447 7.795140e+02 5.906200e+02 1.673800e+02 9.573900e+00 1.048200e+01 1.353500e+00 1.058800e-01 9.839500e-04 5.419300e-04 0.000000e+00 0.000000e+00
482 292 7.793590e+02 5.935100e+02 1.600300e+02 1.224800e+01 1.090800e+01 2.584000e+00 8.322500e-02 1.502000e-05 3.099400e-06 0.000000e+00 0.000000e+00
483 291 7.793190e+02 5.901800e+02 1.591100e+02 1.668500e+01 1.086200e+01 2.416300e+00 6.698300e-02 8.270700e-04 4.053100e-06 0.000000e+00 0.000000e+00
484 164 7.774420e+02 5.942200e+02 1.576500e+02 1.075500e+01 1.111200e+01 3.625700e+00 8.158100e-02 3.349800e-04 1.001400e-05 0.000000e+00 0.000000e+00
485 284 7.763310e+02 5.975400e+02 1.523300e+02 1.320500e+01 1.070100e+01 2.473800e+00 8.524800e-02 8.518700e-04 4.053100e-06 0.000000e+00 0.000000e+00
486 285 7.735460e+02 5.940400e+02 1.506100e+02 1.576500e+01 1.057900e+01 2.482700e+00 7.697800e-02 2.129100e-04 8.988400e-05 0.000000e+00 0.000000e+00
487 156 7.731000e+02 5.992200e+02 1.463600e+02 1.399000e+01 1.086500e+01 2.595700e+00 6.649900e-02 2.358000e-04 1.287500e-05 0.000000e+00 0.000000e+00
488 219 7.720100e+02 5.962000e+02 1.477200e+02 1.531900e+01 1.014400e+01 2.539300e+00 8.286800e-02 7.500600e-04 4.053100e-06 0.000000e+00 0.000000e+00
489 163 7.711360e+02 5.907500e+02 1.503600e+02 1.633900e+01 1.103600e+01 2.585200e+00 6.244100e-02 5.319100e-04 1.621200e-05 0.000000e+00 0.000000e+00
490 96 7.690340e+02 5.960800e+02 1.492500e+02 1.348300e+01 9.919700e+00 1.929900e-01 1.032200e-01 9.100400e-04 2.880100e-04 0.000000e+00 0.000000e+00
491 157 7.618030e+02 5.958100e+02 1.363100e+02 1.630400e+01 1.073800e+01 2.583800e+00 5.505500e-02 9.219600e-04 3.099400e-06 0.000000e+00 0.000000e+00
492 289 7.598260e+02 5.904600e+02 1.391500e+02 1.678700e+01 1.096900e+01 2.380100e+00 7.561600e-02 1.690400e-04 1.020400e-04 0.000000e+00 0.000000e+00
493 286 7.586870e+02 6.017300e+02 1.312100e+02 1.229000e+01 1.084400e+01 2.526300e+00 8.090000e-02 3.011200e-04 1.502000e-05 0.000000e+00 0.000000e+00
494 290 7.581000e+02 5.920600e+02 1.391900e+02 1.335300e+01 1.089800e+01 2.511300e+00 8.383200e-02 1.502000e-05 2.861000e-06 0.000000e+00 0.000000e+00
495 287 7.563510e+02 5.867600e+02 1.395600e+02 1.686500e+01 1.059300e+01 2.494400e+00 7.701500e-02 2.069500e-04 2.520100e-04 0.000000e+00 0.000000e+00
496 511 7.540480e+02 5.893600e+02 1.458100e+02 7.211900e+00 9.760800e+00 1.847700e+00 5.816400e-02 1.022100e-03 5.500300e-04 0.000000e+00 0.000000e+00
497 162 7.489630e+02 5.932900e+02 1.290900e+02 1.178600e+01 1.112600e+01 3.585700e+00 8.260500e-02 2.059900e-04 5.960500e-06 0.000000e+00 0.000000e+00
498 288 7.487720e+02 5.928500e+02 1.291100e+02 1.465600e+01 1.094100e+01 1.137200e+00 7.727800e-02 2.098100e-05 5.960500e-06 0.000000e+00 0.000000e+00
499 161 7.486520e+02 5.904500e+02 1.279700e+02 1.647000e+01 1.113200e+01 2.561900e+00 6.530800e-02 5.548000e-04 3.290200e-05 0.000000e+00 0.000000e+00
500 228 7.482960e+02 5.940300e+02 1.306700e+02 1.019500e+01 9.686700e+00 3.603800e+00 1.070900e-01 2.629800e-04 2.002700e-05 0.000000e+00 0.000000e+00
501 227 7.479780e+02 5.916800e+02 1.271700e+02 1.610000e+01 1.042200e+01 2.510000e+00 9.375700e-02 5.700600e-04 1.096700e-05 0.000000e+00 0.000000e+00
502 158 7.473530e+02 5.995000e+02 1.214300e+02 1.283800e+01 1.095100e+01 2.572200e+00 6.565000e-02 4.570500e-04 5.006800e-06 0.000000e+00 0.000000e+00
503 220 7.458130e+02 5.967100e+02 1.239400e+02 1.295300e+01 9.542900e+00 2.575400e+00 9.564000e-02 4.909000e-04 4.053100e-06 0.000000e+00 0.000000e+00
504 159 7.429890e+02 5.891000e+02 1.234700e+02 1.689800e+01 1.080600e+01 2.653100e+00 6.180500e-02 9.169600e-04 5.006800e-06 0.000000e+00 0.000000e+00
505 221 7.379800e+02 5.959700e+02 1.135800e+02 1.563700e+01 1.014400e+01 2.559400e+00 8.310800e-02 6.730600e-04 5.960500e-06 0.000000e+00 0.000000e+00
506 160 7.275100e+02 5.941900e+02 1.058800e+02 1.498900e+01 1.120900e+01 1.160500e+00 8.160200e-02 7.295600e-05 4.053100e-06 0.000000e+00 0.000000e+00
507 225 7.231860e+02 5.911700e+02 1.026900e+02 1.628000e+01 1.046400e+01 2.501700e+00 8.442400e-02 5.650500e-04 3.814700e-06 0.000000e+00 0.000000e+00
508 222 7.199290e+02 6.002000e+02 9.538400e+01 1.200200e+01 9.650100e+00 2.603700e+00 9.018400e-02 4.980600e-04 5.006800e-06 0.000000e+00 0.000000e+00
509 223 7.182930e+02 5.889700e+02 9.991500e+01 1.656800e+01 1.015900e+01 2.594600e+00 8.435000e-02 7.519700e-04 3.099400e-06 0.000000e+00 0.000000e+00
510 226 7.162660e+02 5.929800e+02 9.870800e+01 1.136600e+01 9.561000e+00 3.534800e+00 1.104200e-01 9.670300e-04 4.053100e-06 0.000000e+00 0.000000e+00
511 224 7.071300e+02 5.952600e+02 8.637700e+01 1.428100e+01 9.895900e+00 1.231800e+00 8.515800e-02 5.488400e-04 8.106200e-06 0.000000e+00 0.000000e+00
