MPI_Reduce 8 2663424 8.615715e+03
MPI_Allreduce 8 6400000 1.336058e+05
MPI_Reduce 32 51712 7.527143e+01
MPI_Reduce 48 52224 1.490193e+02
MPI_Alltoallv 2560 10814432 7.897429e+04
MPI_Allreduce 3072 3840000 2.473989e+04
MPI_Alltoallv 3584 9056112 3.327605e+04
MPI_Alltoallv 5120 660000 3.835619e+03
MPI_Alltoallv 7168 60048 2.213250e+02
MPI_Issend 20480 3780000 1.871171e+01
MPI_Irecv 20480 3780000 1.503161e+01
MPI_Issend 24576 3900000 3.084197e+01
MPI_Irecv 24576 3900000 2.239347e+01
MPI_Alltoallv 81920 15901396 1.212695e+05
MPI_Alltoallv 114688 10443980 1.113841e+05
MPI_Issend 163840 7680000 1.208877e+03
MPI_Irecv 163840 7680000 9.703248e+00
MPI_Alltoallv 163840 1980000 1.720453e+04
